{
    "_id": "dd6DbCsT67rl8va3",
    "data": {
        "boosts": {
            "0": {
                "value": [
                    "cha",
                    "int"
                ]
            },
            "1": {
                "value": [
                    "cha",
                    "con",
                    "dex",
                    "int",
                    "str",
                    "wis"
                ]
            }
        },
        "description": {
            "value": "<p><strong>Prerequisite</strong>: Region - Mwangi Expanse</p>\n<hr />\n<p>You studied magic at the prestigious Magaambya academy in Nantambu, learning magical traditions dating back to Old-Mage Jatembe and earning a pedigree respected by magical scholars almost everywhere.</p>\n<p>Choose two ability boosts. One must be to <strong>Intelligence</strong> or <strong>Charisma</strong>, and one is a free ability boost.</p>\n<p>You're trained in the Nature skill, as well as the Academia Lore skill. You gain the @Compendium[pf2e.feats-srd.Recognize Spell]{Recognize Spell} skill feat.</p>"
        },
        "items": {
            "cq4ht": {
                "id": "MjQyTcV8Jiv1Jtln",
                "img": "systems/pf2e/icons/features/feats/feats.webp",
                "level": "1",
                "name": "Recognize Spell",
                "pack": "pf2e.feats-srd"
            }
        },
        "rules": [],
        "source": {
            "value": "Pathfinder Lost Omens: World Guide"
        },
        "trainedLore": "Academia Lore",
        "trainedSkills": {
            "value": [
                "arc",
                "nat"
            ]
        },
        "traits": {
            "custom": "",
            "rarity": {
                "value": "common"
            },
            "value": []
        }
    },
    "effects": [],
    "flags": {},
    "img": "systems/pf2e/icons/default-icons/background.svg",
    "name": "Magaambya Academic (Nature)",
    "type": "background"
}
