{
    "_id": "JauSkDtMV6dhDZS8",
    "data": {
        "boosts": {
            "0": {
                "value": [
                    "con",
                    "int"
                ]
            },
            "1": {
                "value": [
                    "cha",
                    "con",
                    "dex",
                    "int",
                    "str",
                    "wis"
                ]
            }
        },
        "description": {
            "value": "<p>Like your parents and your parents before them, you initially followed the long path toward politics from an early age. Your close association with Absalom's upper echelons put you in touch with the city's various military or special operations units-the First Guard, the Wave Riders, the Varlokkur-though you avoided any actual duty with these groups. Thanks to your strict upbringing and the connections of your family, you soon became a lauded and highly respected member of Absalom's political elite. But you couldn't stifle a certain feeling that you were destined for more than simply filling the pointed shoes of your forebears. Despite your easily earned accolades and a relatively cushy life as a young lawyer or councilmember, you sought to do more with your diplomatic training and not live out the exact same life as your ancestors.</p>\n<p>Your decision to transfer to the Edgewatch has rubbed your traditionalist family the wrong way, and they've cut off the financial aid they've provided you your whole life. But you don't care-you know you're doing the right thing by taking on the rough jobs of a low-ranking guard, and you're ready to shine based on your own merits, not those of your lofty kin.</p>\n<p>Choose two ability boosts. One must be to <strong>Constitution</strong> or <strong>Intelligence</strong>, and one is a free ability boost.</p>\n<p>You're trained in the Diplomacy skill and Legal Lore. You gain a +1 circumstance bonus to Deception, Diplomacy, and Intimidation checks to Interact with members of Absalom's political establishment. You gain the @Compendium[pf2e.feats-srd.Hobnobber]{Hobnobber} skill feat.</p>"
        },
        "items": {
            "km6n9": {
                "id": "4RjDxgvNXNl5GG9d",
                "img": "systems/pf2e/icons/features/feats/feats.webp",
                "level": "1",
                "name": "Hobnobber",
                "pack": "pf2e.feats-srd"
            }
        },
        "rules": [
            {
                "key": "FlatModifier",
                "label": "Interacting with Absalom's political establishment (Political Scion)",
                "predicate": {
                    "any": [
                        "target:absalom-politician"
                    ]
                },
                "selector": "diplomacy",
                "type": "circumstance",
                "value": 1
            },
            {
                "key": "FlatModifier",
                "label": "Interacting with Absalom's political establishment (Political Scion)",
                "predicate": {
                    "any": [
                        "target:absalom-politician"
                    ]
                },
                "selector": "deception",
                "type": "circumstance",
                "value": 1
            },
            {
                "key": "FlatModifier",
                "label": "Interacting with Absalom's political establishment (Political Scion)",
                "predicate": {
                    "any": [
                        "target:absalom-politician"
                    ]
                },
                "selector": "intimidation",
                "type": "circumstance",
                "value": 1
            }
        ],
        "source": {
            "value": "Pathfinder: Agents of Edgewatch Player's Guide"
        },
        "trainedLore": "Legal Lore",
        "trainedSkills": {
            "value": [
                "dip"
            ]
        },
        "traits": {
            "custom": "",
            "rarity": {
                "value": "common"
            },
            "value": []
        }
    },
    "effects": [],
    "flags": {},
    "img": "systems/pf2e/icons/default-icons/background.svg",
    "name": "Political Scion",
    "type": "background"
}
