{
    "_id": "8NgA4PFFXZPZ9SSg",
    "data": {
        "baseItem": null,
        "brokenThreshold": {
            "value": 0
        },
        "bulkCapacity": {
            "value": ""
        },
        "collapsed": {
            "value": false
        },
        "containerId": {
            "value": ""
        },
        "description": {
            "value": "<p>These tall, pointed boots are made from soft, supple black or green leather and are decorated with trim and buckles of gold. When worn, the boots allow you to move more nimbly, granting you a +2 item bonus to Acrobatics checks.</p>\n<p><strong>Activate</strong> <span class=\"pf2-icon\">F</span> envision</p>\n<p><strong>Frequency</strong> once per hour</p>\n<p><strong>Effect</strong> Until the end of your turn, you ignore difficult terrain when moving on the ground. If you're wearing a @Compendium[pf2e.equipment-srd.Cloak of Elvenkind]{Cloak of Elvenkind}, you also gain a +5-foot status bonus to your land Speed until the end of your turn, and greater boots of elvenkind constantly grant the effects of @Compendium[pf2e.spells-srd.Pass Without Trace]{Pass Without Trace} (DC 30) in forest environments.</p>\n<p>@Compendium[pf2e.equipment-effects.Effect: Boots of Elvenkind]{Effect: Boots of Elvenkind}</p>\n<hr />\n<p>Automatically applied effects:</p>\n<ul>\n<li>+2 item bonus to Acrobatics checks</li>\n</ul>"
        },
        "equipped": {
            "value": false
        },
        "equippedBulk": {
            "value": ""
        },
        "hardness": {
            "value": 0
        },
        "hp": {
            "value": 0
        },
        "identification": {
            "misidentified": {},
            "status": "identified",
            "unidentified": {
                "data": {
                    "description": {
                        "value": ""
                    }
                },
                "img": "",
                "name": ""
            }
        },
        "invested": {
            "value": false
        },
        "level": {
            "value": 11
        },
        "maxHp": {
            "value": 0
        },
        "negateBulk": {
            "value": "0"
        },
        "preciousMaterial": {
            "value": ""
        },
        "preciousMaterialGrade": {
            "value": ""
        },
        "price": {
            "value": "1,250 gp"
        },
        "quantity": {
            "value": 1
        },
        "rules": [
            {
                "key": "FlatModifier",
                "selector": "acrobatics",
                "type": "item",
                "value": 2
            }
        ],
        "size": {
            "value": "med"
        },
        "source": {
            "value": "Pathfinder Core Rulebook"
        },
        "stackGroup": {
            "value": ""
        },
        "traits": {
            "custom": "",
            "rarity": {
                "value": "common"
            },
            "value": [
                "invested",
                "magical",
                "transmutation"
            ]
        },
        "usage": {
            "value": "wornshoes"
        },
        "weight": {
            "value": "L"
        }
    },
    "effects": [],
    "flags": {},
    "img": "systems/pf2e/icons/equipment/worn-items/other-worn-items/boots-of-elvenkind.webp",
    "name": "Boots of Elvenkind (Greater)",
    "type": "equipment"
}
