{
    "_id": "MNBnZn0b80Q7yHJM",
    "data": {
        "baseItem": null,
        "brokenThreshold": {
            "value": 0
        },
        "bulkCapacity": {
            "value": ""
        },
        "collapsed": {
            "value": false
        },
        "containerId": {
            "value": ""
        },
        "description": {
            "value": "<p>This cloak is deep green with a voluminous hood, embroidered with gold trim and symbols significant in elven culture. The cloak allows you to cast the @Compendium[pf2e.spells-srd.Ghost Sound]{Ghost Sound} cantrip as an arcane innate spell.</p>\n<p>When you adjust the cloak's clasp (an Interact action), the cloak transforms to match the environment around you and muffles your sounds, granting you a +1 item bonus to Stealth checks.</p>\n<p>@Compendium[pf2e.equipment-effects.Effect: Cloak of Elvenkind]{Effect: Cloak of Elvenkind}</p>\n<hr />\n<p><strong>Activate</strong> <span class=\"pf2-icon\">D</span> Interact</p>\n<p><strong>Frequency</strong> once per day</p>\n<p><strong>Effect</strong> You draw the hood up and gain the effects of @Compendium[pf2e.spells-srd.Invisibility]{Invisibility}, with the spell's normal duration or until you pull the hood back down, whichever comes first. If you're also wearing @Compendium[pf2e.equipment-srd.Boots of Elvenkind]{Boots of Elvenkind} you can activate this ability twice per day.</p>"
        },
        "equipped": {
            "value": false
        },
        "equippedBulk": {
            "value": ""
        },
        "hardness": {
            "value": 0
        },
        "hp": {
            "value": 0
        },
        "identification": {
            "misidentified": {},
            "status": "identified",
            "unidentified": {
                "data": {
                    "description": {
                        "value": ""
                    }
                },
                "img": "",
                "name": ""
            }
        },
        "invested": {
            "value": false
        },
        "level": {
            "value": 7
        },
        "maxHp": {
            "value": 0
        },
        "negateBulk": {
            "value": "0"
        },
        "preciousMaterial": {
            "value": ""
        },
        "preciousMaterialGrade": {
            "value": ""
        },
        "price": {
            "value": "360 gp"
        },
        "quantity": {
            "value": 1
        },
        "rules": [],
        "size": {
            "value": "med"
        },
        "source": {
            "value": "Pathfinder Core Rulebook"
        },
        "stackGroup": {
            "value": ""
        },
        "traits": {
            "custom": "",
            "rarity": {
                "value": "common"
            },
            "value": [
                "illusion",
                "invested",
                "magical"
            ]
        },
        "usage": {
            "value": "worncloak"
        },
        "weight": {
            "value": "L"
        }
    },
    "effects": [],
    "flags": {},
    "img": "systems/pf2e/icons/equipment/worn-items/other-worn-items/cloak-of-elvenkind.webp",
    "name": "Cloak of Elvenkind",
    "type": "equipment"
}
