{
    "_id": "COsToVFlA36UmkB7",
    "data": {
        "armor": {
            "value": 2
        },
        "armorType": {
            "value": "light"
        },
        "baseItem": "studded-leather-armor",
        "brokenThreshold": {
            "value": null
        },
        "bulkCapacity": {
            "value": ""
        },
        "check": {
            "value": -1
        },
        "collapsed": {
            "value": false
        },
        "containerId": {
            "value": ""
        },
        "description": {
            "value": "<p>This +2 greater resilient studded leather is traditionally inscribed with a symbol of either Norgorber or Cayden Cailean. Its leather is light as silk, and its buttons and studs are gleaming crystal. While you wear it, you get a +15-foot item bonus to your Speed, and effects that attempt to impose penalties on your Speed must first counteract the jerkin of liberation or they have no effect on you.</p>\n<p>In addition, you are hard to incapacitate. You use the jerkin's item level or your own level, whichever is higher, to determine effects of the incapacitation trait.</p>\n<hr />\n<p>Automatically applied effects:</p>\n<ul>\n<li>+15-foot item bonus to your Speed</li>\n</ul>"
        },
        "dex": {
            "value": 3
        },
        "equipped": {
            "value": false
        },
        "equippedBulk": {
            "value": "1"
        },
        "group": {
            "value": "leather"
        },
        "hardness": {
            "value": null
        },
        "hp": {
            "value": null
        },
        "identification": {
            "misidentified": {},
            "status": "identified",
            "unidentified": {
                "data": {
                    "description": {
                        "value": ""
                    }
                },
                "img": "",
                "name": ""
            }
        },
        "invested": {
            "value": false
        },
        "level": {
            "value": 17
        },
        "maxHp": {
            "value": null
        },
        "negateBulk": {
            "value": "0"
        },
        "potency": {},
        "potencyRune": {
            "value": 2
        },
        "preciousMaterial": {
            "value": ""
        },
        "preciousMaterialGrade": {
            "value": ""
        },
        "price": {
            "value": "14,000 gp"
        },
        "propertyRune1": {
            "value": ""
        },
        "propertyRune2": {
            "value": ""
        },
        "propertyRune3": {
            "value": ""
        },
        "propertyRune4": {
            "value": ""
        },
        "quantity": {
            "value": 1
        },
        "resiliencyRune": {
            "value": "greaterResilient"
        },
        "resilient": {},
        "rules": [
            {
                "key": "FlatModifier",
                "selector": "speed",
                "type": "item",
                "value": 15
            }
        ],
        "size": {
            "value": "med"
        },
        "source": {
            "value": "Pathfinder #156: The Apocalypse Prophet"
        },
        "speed": {
            "value": 0
        },
        "stackGroup": {
            "value": ""
        },
        "strength": {
            "value": 12
        },
        "traits": {
            "custom": "",
            "rarity": {
                "value": "uncommon"
            },
            "value": [
                "abjuration",
                "invested",
                "magical"
            ]
        },
        "usage": {
            "value": "wornarmor"
        },
        "weight": {
            "value": "2"
        }
    },
    "effects": [],
    "flags": {},
    "img": "systems/pf2e/icons/equipment/armor/specific-magic-armor/jerkin-of-liberation.webp",
    "name": "Jerkin of Liberation",
    "type": "armor"
}
