{
    "_id": "xvJ2jzqipBNrwZ2w",
    "data": {
        "activation": {
            "condition": "",
            "cost": 0,
            "type": ""
        },
        "autoDestroy": {
            "_deprecated": true,
            "value": true
        },
        "autoUse": {
            "_deprecated": true,
            "value": true
        },
        "baseItem": null,
        "brokenThreshold": {
            "value": 0
        },
        "bulkCapacity": {
            "value": ""
        },
        "charges": {
            "_deprecated": true,
            "max": "1",
            "value": "1"
        },
        "collapsed": {
            "value": false
        },
        "consumableType": {
            "value": "poison"
        },
        "consume": {
            "_deprecated": true,
            "value": null
        },
        "containerId": {
            "value": ""
        },
        "description": {
            "value": "<p><strong>Activate</strong> <span class=\"pf2-icon\">1</span> Interact;</p>\n<p>This blackish grit seems to absorb light and resembles particularly dark flakes of black pepper. Infused with the blindness spell, sight-theft grit causes the victim's sight to dim and then depart altogether. The @Compendium[pf2e.conditionitems.Blinded]{Blinded} condition from this poison lasts for an additional 24 hours once the poison has run its course.</p>\n<hr />\n<p><strong>Saving Throw</strong> <span data-pf2-check=\"fortitude\" data-pf2-dc=\"28\" data-pf2-traits=\"divine,ingested,poison\" data-pf2-label=\"Sight-Theft Grit DC\" data-pf2-show-dc=\"gm\">Fortitude</span>;</p>\n<p><strong>Onset</strong> 10 minutes;</p>\n<p><strong>Maximum Duration</strong> 14 hours;</p>\n<p><strong>Stage 1</strong> @Compendium[pf2e.conditionitems.Dazzled]{Dazzled} and a -2 status penalty to visual Perception checks (1 hour);</p>\n<p><strong>Stage 2</strong> dazzled and a -4 status penalty to visual Perception checks (1 hour);</p>\n<p><strong>Stage 3</strong> blinded ([[/r 2d6 #hours]]{2d6 hours})</p>\n<hr />\n<p>Craft Requirements Supply one casting of @Compendium[pf2e.spells-srd.Blindness]{Blindness}.</p>"
        },
        "duration": {
            "units": "",
            "value": null
        },
        "equipped": {
            "value": false
        },
        "equippedBulk": {
            "value": ""
        },
        "hardness": {
            "value": 0
        },
        "hp": {
            "value": 0
        },
        "identification": {
            "misidentified": {},
            "status": "identified",
            "unidentified": {
                "data": {
                    "description": {
                        "value": ""
                    }
                },
                "img": "",
                "name": ""
            }
        },
        "level": {
            "value": 9
        },
        "maxHp": {
            "value": 0
        },
        "negateBulk": {
            "value": "0"
        },
        "preciousMaterial": {
            "value": ""
        },
        "preciousMaterialGrade": {
            "value": ""
        },
        "price": {
            "value": "115 gp"
        },
        "quantity": {
            "value": 1
        },
        "range": {
            "long": null,
            "units": "",
            "value": null
        },
        "rules": [],
        "size": {
            "value": "med"
        },
        "source": {
            "value": "Pathfinder #160: Assault on Hunting Lodge Seven"
        },
        "spell": {
            "data": null,
            "heightenedLevel": null
        },
        "stackGroup": {
            "value": ""
        },
        "target": {
            "type": "",
            "units": "",
            "value": null
        },
        "traits": {
            "custom": "",
            "rarity": {
                "value": "uncommon"
            },
            "value": [
                "consumable",
                "divine",
                "ingested",
                "poison"
            ]
        },
        "usage": {
            "value": "held-in-one-hand"
        },
        "uses": {
            "autoDestroy": true,
            "autoUse": true,
            "max": 0,
            "per": null,
            "value": 0
        },
        "weight": {
            "value": "L"
        }
    },
    "effects": [],
    "flags": {},
    "img": "systems/pf2e/icons/equipment/alchemical-items/alchemical-poisons/sight-theft-grit.webp",
    "name": "Sight-Theft Grit",
    "type": "consumable"
}
