{
    "_id": "AdFuuUS7bIVqp5K7",
    "data": {
        "attributes": {
            "ac": {
                "value": 21
            },
            "hardness": 14,
            "hasHealth": true,
            "hp": {
                "details": "",
                "max": 56,
                "temp": 0,
                "tempmax": 0,
                "value": 56
            },
            "stealth": {
                "details": "",
                "value": 0
            }
        },
        "creatureType": "",
        "details": {
            "description": "<p>The rusty grate covers a pit that's 10 feet in diameter and 40 feet deep.</p>",
            "disable": "<p>DC 18 Thievery to harmlessly trigger the trap by nudging the gate or the dangling winch, or DC 24 Thievery to stabilize the grate so it doesn't collapse.</p>",
            "isComplex": false,
            "level": {
                "value": 6
            },
            "reset": "",
            "routine": ""
        },
        "saves": {
            "fortitude": {
                "saveDetail": "",
                "value": 17
            },
            "reflex": {
                "saveDetail": "",
                "value": 11
            },
            "will": {
                "saveDetail": "",
                "value": 0
            }
        },
        "source": {
            "value": "Pathfinder #164: Hands of the Devil"
        },
        "statusEffects": [],
        "traits": {
            "ci": [],
            "di": {
                "custom": "",
                "selected": {},
                "value": [
                    "critical-hits",
                    "object-immunities",
                    "precision-damage"
                ]
            },
            "dr": [],
            "dv": [],
            "rarity": {
                "value": "common"
            },
            "size": {
                "value": "med"
            },
            "traits": {
                "custom": "",
                "value": [
                    "mechanical"
                ]
            }
        }
    },
    "effects": [],
    "flags": {},
    "img": "systems/pf2e/icons/default-icons/hazard.svg",
    "items": [
        {
            "_id": "AkS8oNJyeHZyFiyP",
            "data": {
                "actionCategory": {
                    "value": "offensive"
                },
                "actionType": {
                    "value": "reaction"
                },
                "actions": {
                    "value": null
                },
                "description": {
                    "value": "<p data-visibility=\"gm\"><strong>Trigger</strong> A creature walks onto the grate; <strong>Effect</strong> The triggering creature falls in and takes falling damage ([[/r 20 #bludgeoning]]{20 bludgeoning damage}). That creature can use the Grab an Edge reaction to avoid falling. Whether or not the creature Grabs an Edge, the rusty winch above crashes down atop the triggering creature, dealing [[/roll 3d10 # bludgeoning]] bludgeoning damage and dislodging its grip (<span data-pf2-check=\"reflex\" data-pf2-dc=\"24\" data-pf2-traits=\"damaging-effect\" data-pf2-label=\"Pitfall DC\" data-pf2-show-dc=\"gm\">basic Reflex</span> save). The creature can still try to Grab an Edge again.</p>"
                },
                "requirements": {
                    "value": ""
                },
                "rules": [],
                "slug": null,
                "source": {
                    "value": ""
                },
                "traits": {
                    "custom": "",
                    "rarity": {
                        "value": "common"
                    },
                    "value": []
                },
                "trigger": {
                    "value": ""
                },
                "weapon": {
                    "value": ""
                }
            },
            "effects": [],
            "flags": {},
            "img": "systems/pf2e/icons/actions/Reaction.webp",
            "name": "Pitfall",
            "sort": 100000,
            "type": "action"
        }
    ],
    "name": "Rusty Grate Pit",
    "token": {
        "disposition": 0,
        "height": 1,
        "img": "systems/pf2e/icons/default-icons/hazard.svg",
        "name": "Rusty Grave Pit",
        "width": 1
    },
    "type": "hazard"
}
