{
    "_id": "xXtGS9uBa9z43X7y",
    "data": {
        "abilities": {
            "cha": {
                "mod": 0
            },
            "con": {
                "mod": 3
            },
            "dex": {
                "mod": -1
            },
            "int": {
                "mod": -3
            },
            "str": {
                "mod": 3
            },
            "wis": {
                "mod": 1
            }
        },
        "attributes": {
            "ac": {
                "details": "19 while withdrawn into its shell",
                "value": 17
            },
            "allSaves": {
                "value": null
            },
            "hp": {
                "details": "",
                "max": 20,
                "temp": 0,
                "value": 20
            },
            "initiative": {
                "ability": "perception"
            },
            "perception": {
                "value": 4
            },
            "shield": {
                "ac": 0,
                "brokenThreshold": 0,
                "hardness": 0,
                "max": 0,
                "value": 0
            },
            "speed": {
                "otherSpeeds": [
                    {
                        "type": "Swim",
                        "value": "20 feet"
                    }
                ],
                "value": "20"
            }
        },
        "details": {
            "alignment": {
                "value": "N"
            },
            "creatureType": "Beast",
            "flavorText": "<p>The graveshell is a dangerous predator that draws scavengers and explorers into its grasp using a morbid lure: the corpse of a former victim impaled upon the spikes that protrude from its large, turtle-like shell. Aside from its shell, the monster resembles no known animal. Small but bright yellow eyes watch from the sagging flesh of its head, the most prominent feature of which is a curiously shaped, toothy maw twisted into a perpetual grin. Its stubby arms and legs are impractical for both walking and swimming, though the algae-caked claws tipping each limb are deadly weapons.</p>\n<p>Graveshells are intelligent-a fact that surprises many who encounter them-and surrender rather than fight to the death. These monsters have little to offer in exchange for their lives, though the waterlogged treasures on their collection of corpses may entice opportunists.</p>",
            "level": {
                "value": 1
            },
            "source": {
                "value": "Pathfinder #145: Hellknight Hill"
            }
        },
        "resources": {},
        "saves": {
            "fortitude": {
                "saveDetail": "",
                "value": 8
            },
            "reflex": {
                "saveDetail": "",
                "value": 2
            },
            "will": {
                "saveDetail": "",
                "value": 4
            }
        },
        "traits": {
            "attitude": {
                "value": "hostile"
            },
            "ci": [],
            "di": {
                "custom": "",
                "value": []
            },
            "dr": [],
            "dv": [],
            "languages": {
                "custom": "",
                "selected": [],
                "value": [
                    "common",
                    "undercommon"
                ]
            },
            "rarity": {
                "value": "uncommon"
            },
            "senses": {
                "value": "darkvision, wavesense (imprecise) 30 feet"
            },
            "size": {
                "value": "lg"
            },
            "traits": {
                "custom": "",
                "value": [
                    "beast"
                ]
            }
        }
    },
    "effects": [],
    "flags": {},
    "img": "systems/pf2e/icons/default-icons/npc.svg",
    "items": [
        {
            "_id": "6kF6A19eKeAk7fOO",
            "data": {
                "attack": {
                    "value": ""
                },
                "attackEffects": {
                    "value": []
                },
                "bonus": {
                    "value": 8
                },
                "damageRolls": {
                    "rpri7t254f9zvisjw1sd": {
                        "damage": "1d6+3",
                        "damageType": "piercing"
                    }
                },
                "description": {
                    "value": ""
                },
                "rules": [],
                "slug": null,
                "source": {
                    "value": ""
                },
                "traits": {
                    "custom": "",
                    "rarity": {
                        "value": "common"
                    },
                    "value": []
                },
                "weaponType": {
                    "value": "melee"
                }
            },
            "effects": [],
            "flags": {},
            "img": "systems/pf2e/icons/default-icons/melee.svg",
            "name": "Jaws",
            "sort": 100000,
            "type": "melee"
        },
        {
            "_id": "4VBtm8sTSFf6jv0w",
            "data": {
                "attack": {
                    "value": ""
                },
                "attackEffects": {
                    "value": []
                },
                "bonus": {
                    "value": 8
                },
                "damageRolls": {
                    "68qfbfokaru9x3oi4p3v": {
                        "damage": "1d4+3",
                        "damageType": "slashing"
                    }
                },
                "description": {
                    "value": ""
                },
                "rules": [],
                "slug": null,
                "source": {
                    "value": ""
                },
                "traits": {
                    "custom": "",
                    "rarity": {
                        "value": "common"
                    },
                    "value": [
                        "agile"
                    ]
                },
                "weaponType": {
                    "value": "melee"
                }
            },
            "effects": [],
            "flags": {},
            "img": "systems/pf2e/icons/default-icons/melee.svg",
            "name": "Claw",
            "sort": 200000,
            "type": "melee"
        },
        {
            "_id": "AhUdp5npAh56MGtg",
            "data": {
                "attack": {
                    "value": ""
                },
                "attackEffects": {
                    "value": []
                },
                "bonus": {
                    "value": 8
                },
                "damageRolls": {
                    "uij3w50kz8ajy34v3b4u": {
                        "damage": "1d4+3",
                        "damageType": "piercing"
                    }
                },
                "description": {
                    "value": ""
                },
                "rules": [],
                "slug": null,
                "source": {
                    "value": ""
                },
                "traits": {
                    "custom": "",
                    "rarity": {
                        "value": "common"
                    },
                    "value": []
                },
                "weaponType": {
                    "value": "melee"
                }
            },
            "effects": [],
            "flags": {},
            "img": "systems/pf2e/icons/default-icons/melee.svg",
            "name": "Shell Spikes",
            "sort": 300000,
            "type": "melee"
        },
        {
            "_id": "cUPegejySeJGT7RK",
            "data": {
                "actionCategory": {
                    "value": "interaction"
                },
                "actionType": {
                    "value": "passive"
                },
                "actions": {
                    "value": null
                },
                "description": {
                    "value": "<p>The graveshell conceals its true nature over the course of a few minutes by impaling a corpse (typically humanoid) on its spiky shell before partially submerging itself in water. It has an automatic result of 22 on Deception checks and DCs to pass as a corpse floating in the water.</p>"
                },
                "requirements": {
                    "value": ""
                },
                "rules": [],
                "slug": null,
                "source": {
                    "value": ""
                },
                "traits": {
                    "custom": "",
                    "rarity": {
                        "value": "common"
                    },
                    "value": [
                        "exploration"
                    ]
                },
                "trigger": {
                    "value": ""
                },
                "weapon": {
                    "value": ""
                }
            },
            "effects": [],
            "flags": {},
            "img": "systems/pf2e/icons/default-icons/action.svg",
            "name": "Corpse Disguise",
            "sort": 400000,
            "type": "action"
        },
        {
            "_id": "N01NwkU6GvutbIp7",
            "data": {
                "actionCategory": {
                    "value": "defensive"
                },
                "actionType": {
                    "value": "reaction"
                },
                "actions": {
                    "value": null
                },
                "description": {
                    "value": "<p data-visibility=\"gm\"><strong>Trigger</strong> The graveshell takes damage from a physical attack while withdrawn into its shell (see Shell Game below). <strong>Effect</strong> The graveshell reduces the damage from the attack by an amount equal to its shell's Hardness. A graveshell's shell has a Hardness of 6, 10 Hit Points, and a Broken Threshold of 5. If its shell is broken, the graveshell can't attack with shell spikes, nor can it use Shell Game. If the shell is destroyed, the graveshell's AC is reduced to 16. As long as a graveshell is alive, its shell naturally repairs itself after a week.</p>"
                },
                "requirements": {
                    "value": ""
                },
                "rules": [],
                "slug": null,
                "source": {
                    "value": ""
                },
                "traits": {
                    "custom": "",
                    "rarity": {
                        "value": "common"
                    },
                    "value": []
                },
                "trigger": {
                    "value": ""
                },
                "weapon": {
                    "value": ""
                }
            },
            "effects": [],
            "flags": {},
            "img": "systems/pf2e/icons/default-icons/action.svg",
            "name": "Shell Block",
            "sort": 500000,
            "type": "action"
        },
        {
            "_id": "C9IfyXUudzvj3eop",
            "data": {
                "actionCategory": {
                    "value": "offensive"
                },
                "actionType": {
                    "value": "passive"
                },
                "actions": {
                    "value": null
                },
                "description": {
                    "value": "<p>The graveshell can hold its breath for 200 rounds (20 minutes).</p>"
                },
                "requirements": {
                    "value": ""
                },
                "rules": [],
                "slug": null,
                "source": {
                    "value": ""
                },
                "traits": {
                    "custom": "",
                    "rarity": {
                        "value": "common"
                    },
                    "value": []
                },
                "trigger": {
                    "value": ""
                },
                "weapon": {
                    "value": ""
                }
            },
            "effects": [],
            "flags": {},
            "img": "systems/pf2e/icons/actions/Passive.webp",
            "name": "Deep Breath",
            "sort": 600000,
            "type": "action"
        },
        {
            "_id": "delWZwlGtrbwQofE",
            "data": {
                "actionCategory": {
                    "value": "offensive"
                },
                "actionType": {
                    "value": "action"
                },
                "actions": {
                    "value": 1
                },
                "description": {
                    "value": "<p>The graveshell withdraws into its shell, gaining a +2 circumstance bonus to AC and allowing it to use Shell Block. This lasts until the graveshell moves or attacks with any attack other than its shell spikes. The graveshell can't take this action or get any benefit from it if its shell is broken.</p>"
                },
                "requirements": {
                    "value": ""
                },
                "rules": [],
                "slug": null,
                "source": {
                    "value": ""
                },
                "traits": {
                    "custom": "",
                    "rarity": {
                        "value": "common"
                    },
                    "value": []
                },
                "trigger": {
                    "value": ""
                },
                "weapon": {
                    "value": ""
                }
            },
            "effects": [],
            "flags": {},
            "img": "systems/pf2e/icons/default-icons/action.svg",
            "name": "Shell Game",
            "sort": 700000,
            "type": "action"
        },
        {
            "_id": "paHmTmkcEAQFy51G",
            "data": {
                "description": {
                    "value": ""
                },
                "item": {
                    "value": 0
                },
                "mod": {
                    "value": 6
                },
                "proficient": {
                    "value": 0
                },
                "rules": [],
                "slug": null,
                "source": {
                    "value": ""
                },
                "traits": {
                    "custom": "",
                    "rarity": {
                        "value": "common"
                    },
                    "value": []
                }
            },
            "effects": [],
            "flags": {},
            "img": "systems/pf2e/icons/default-icons/lore.svg",
            "name": "Athletics",
            "sort": 800000,
            "type": "lore"
        },
        {
            "_id": "3rm9Bw1g7lIfadvb",
            "data": {
                "description": {
                    "value": ""
                },
                "item": {
                    "value": 0
                },
                "mod": {
                    "value": 4
                },
                "proficient": {
                    "value": 0
                },
                "rules": [],
                "slug": null,
                "source": {
                    "value": ""
                },
                "traits": {
                    "custom": "",
                    "rarity": {
                        "value": "common"
                    },
                    "value": []
                }
            },
            "effects": [],
            "flags": {},
            "img": "systems/pf2e/icons/default-icons/lore.svg",
            "name": "Stealth",
            "sort": 900000,
            "type": "lore"
        }
    ],
    "name": "Graveshell",
    "token": {
        "disposition": -1,
        "height": 2,
        "img": "systems/pf2e/icons/default-icons/npc.svg",
        "name": "Graveshell",
        "width": 2
    },
    "type": "npc"
}
