{
    "_id": "mwovQpf278O1vdCR",
    "data": {
        "abilities": {
            "cha": {
                "mod": 7
            },
            "con": {
                "mod": 2
            },
            "dex": {
                "mod": 8
            },
            "int": {
                "mod": -1
            },
            "str": {
                "mod": -5
            },
            "wis": {
                "mod": 4
            }
        },
        "attributes": {
            "ac": {
                "details": "",
                "value": 36
            },
            "allSaves": {
                "value": ""
            },
            "hp": {
                "details": "",
                "max": 190,
                "temp": 0,
                "value": 190
            },
            "initiative": {
                "ability": "perception"
            },
            "perception": {
                "value": 24
            },
            "shield": {
                "ac": 0,
                "brokenThreshold": 0,
                "hardness": 0,
                "max": 0,
                "value": 0
            },
            "speed": {
                "otherSpeeds": [],
                "value": "fly 20"
            }
        },
        "details": {
            "alignment": {
                "value": "LE"
            },
            "creatureType": "Spirit",
            "flavorText": "<p>When a creature dies, and for whatever reason its spirit is unable or unwilling to leave the site of its death, that spirit may manifest as a poltergeist: a restless invisible spirit that is still able to manipulate physical objects. Many poltergeists perished in a way that resulted from or has led to extreme emotional trauma.</p>",
            "level": {
                "value": 14
            },
            "source": {
                "value": "Pathfinder #166: Despair on Danger Island"
            }
        },
        "resources": {
            "focus": {
                "max": 1,
                "value": 1
            }
        },
        "saves": {
            "fortitude": {
                "saveDetail": "",
                "value": 22
            },
            "reflex": {
                "saveDetail": "",
                "value": 27
            },
            "will": {
                "saveDetail": "",
                "value": 26
            }
        },
        "traits": {
            "attitude": {
                "value": "hostile"
            },
            "ci": [],
            "di": {
                "custom": "",
                "value": [
                    "death-effects",
                    "disease",
                    "paralyzed",
                    "poison",
                    "precision",
                    "unconscious"
                ]
            },
            "dr": [
                {
                    "exceptions": "force or ghost touch or positive; double resistance vs. non-magical",
                    "label": "All",
                    "type": "all",
                    "value": "15"
                }
            ],
            "dv": [],
            "languages": {
                "custom": "",
                "selected": [],
                "value": [
                    "tien"
                ]
            },
            "rarity": {
                "value": "unique"
            },
            "senses": {
                "value": "darkvision"
            },
            "size": {
                "value": "med"
            },
            "traits": {
                "custom": "",
                "value": [
                    "incorporeal",
                    "spirit",
                    "undead"
                ]
            }
        }
    },
    "effects": [],
    "flags": {},
    "img": "systems/pf2e/icons/default-icons/npc.svg",
    "items": [
        {
            "_id": "wBKGpIKY3BTANzqY",
            "data": {
                "ability": {
                    "value": ""
                },
                "autoHeightenLevel": {
                    "value": null
                },
                "description": {
                    "value": ""
                },
                "displayLevel": {},
                "displayLevels": {},
                "item": {
                    "value": 0
                },
                "prepared": {
                    "value": "Innate"
                },
                "proficiency": {
                    "value": 0
                },
                "rules": [],
                "showSlotlessLevels": {
                    "value": true
                },
                "showUnpreparedSpells": {
                    "value": false
                },
                "signatureSpells": {
                    "value": []
                },
                "slots": {
                    "slot0": {
                        "max": 0,
                        "prepared": [],
                        "value": 0
                    },
                    "slot1": {
                        "max": 0,
                        "prepared": [],
                        "value": 0
                    },
                    "slot10": {
                        "max": 0,
                        "prepared": [],
                        "value": 0
                    },
                    "slot11": {
                        "max": 0,
                        "prepared": [],
                        "value": 0
                    },
                    "slot2": {
                        "max": 0,
                        "prepared": [],
                        "value": 0
                    },
                    "slot3": {
                        "max": 0,
                        "prepared": [],
                        "value": 0
                    },
                    "slot4": {
                        "max": 0,
                        "prepared": [],
                        "value": 0
                    },
                    "slot5": {
                        "max": 0,
                        "prepared": [],
                        "value": 0
                    },
                    "slot6": {
                        "max": 0,
                        "prepared": [],
                        "value": 0
                    },
                    "slot7": {
                        "max": 0,
                        "prepared": [],
                        "value": 0
                    },
                    "slot8": {
                        "max": 0,
                        "prepared": [],
                        "value": 0
                    },
                    "slot9": {
                        "max": 0,
                        "prepared": [],
                        "value": 0
                    }
                },
                "slug": null,
                "source": {
                    "value": ""
                },
                "spelldc": {
                    "dc": 35,
                    "item": 0,
                    "mod": 0,
                    "value": 25
                },
                "tradition": {
                    "value": "occult"
                },
                "traits": {
                    "custom": "",
                    "rarity": {
                        "value": "common"
                    },
                    "value": []
                }
            },
            "effects": [],
            "flags": {},
            "img": "systems/pf2e/icons/default-icons/spellcastingEntry.svg",
            "name": "Occult Innate Spells",
            "sort": 100000,
            "type": "spellcastingEntry"
        },
        {
            "_id": "OEwmQQDbleoK1HcR",
            "data": {
                "ability": {
                    "value": ""
                },
                "area": {
                    "areaType": "",
                    "value": ""
                },
                "autoHeightenLevel": {
                    "value": null
                },
                "category": {
                    "value": "spell"
                },
                "components": {
                    "focus": false,
                    "material": false,
                    "somatic": true,
                    "verbal": true
                },
                "cost": {
                    "value": ""
                },
                "damage": {
                    "value": {}
                },
                "description": {
                    "value": "<p>With a rush of telekinetic power, you move a foe or something they carry. You can attempt to Disarm, Shove, or Trip the target using a spell attack roll instead of an Athletics check.</p>"
                },
                "duration": {
                    "value": ""
                },
                "hasCounteractCheck": {
                    "value": false
                },
                "level": {
                    "value": 7
                },
                "location": {
                    "value": "wBKGpIKY3BTANzqY"
                },
                "materials": {
                    "value": ""
                },
                "prepared": {
                    "value": ""
                },
                "range": {
                    "value": "60 feet"
                },
                "rules": [],
                "save": {
                    "basic": "",
                    "value": ""
                },
                "school": {
                    "value": "evocation"
                },
                "slug": null,
                "source": {
                    "value": "https://2e.aonprd.com/Spells.aspx?ID=333"
                },
                "spellType": {
                    "value": "attack"
                },
                "sustained": {
                    "value": false
                },
                "target": {
                    "value": "1 creature"
                },
                "time": {
                    "value": "2"
                },
                "traditions": {
                    "value": [
                        "arcane",
                        "occult"
                    ]
                },
                "traits": {
                    "custom": "",
                    "rarity": {
                        "value": "common"
                    },
                    "value": [
                        "attack",
                        "force"
                    ]
                }
            },
            "effects": [],
            "flags": {},
            "img": "systems/pf2e/icons/spells/telekinetic-maneuver.webp",
            "name": "Telekinetic Maneuver",
            "sort": 200000,
            "type": "spell"
        },
        {
            "_id": "PQtYX0LsSwVsxZLo",
            "data": {
                "ability": {
                    "value": ""
                },
                "area": {
                    "areaType": "",
                    "value": ""
                },
                "autoHeightenLevel": {
                    "value": null
                },
                "category": {
                    "value": "spell"
                },
                "components": {
                    "focus": false,
                    "material": false,
                    "somatic": true,
                    "verbal": true
                },
                "cost": {
                    "value": ""
                },
                "damage": {
                    "value": {}
                },
                "description": {
                    "value": "<p>You create a single magical hand, either invisible or ghostlike, that grasps the target object and moves it slowly up to 20 feet. Because you're levitating the object, you can move it in any direction. When you Sustain the Spell, you can move the object an additional 20 feet. If the object is in the air when the spell ends, the object falls.</p>\n<hr />\n<p><strong>Heightened</strong> You can target an unattended object with a Bulk of 1 or less.</p>\n<p><strong>Heightened</strong> The range increases to 60 feet, and you can target an unattended object with a Bulk of 1 or less.</p>\n<p><strong>Heightened</strong> The range increases to 60 feet, and you can target an unattended object with a Bulk of 2 or less.</p>"
                },
                "duration": {
                    "value": "sustained"
                },
                "hasCounteractCheck": {
                    "value": false
                },
                "level": {
                    "value": 1
                },
                "location": {
                    "value": "wBKGpIKY3BTANzqY"
                },
                "materials": {
                    "value": ""
                },
                "prepared": {
                    "value": ""
                },
                "range": {
                    "value": "30 feet"
                },
                "rules": [],
                "save": {
                    "basic": "",
                    "value": ""
                },
                "school": {
                    "value": "evocation"
                },
                "slug": null,
                "source": {
                    "value": "https://2e.aonprd.com/Spells.aspx?ID=177"
                },
                "spellType": {
                    "value": "utility"
                },
                "sustained": {
                    "value": false
                },
                "target": {
                    "value": "1 unattended object of light Bulk or less"
                },
                "time": {
                    "value": "2"
                },
                "traditions": {
                    "value": [
                        "arcane",
                        "occult"
                    ]
                },
                "traits": {
                    "custom": "",
                    "rarity": {
                        "value": "common"
                    },
                    "value": [
                        "cantrip"
                    ]
                }
            },
            "effects": [],
            "flags": {},
            "img": "systems/pf2e/icons/spells/mage-hand.webp",
            "name": "Mage Hand - Cantrips",
            "sort": 300000,
            "type": "spell"
        },
        {
            "_id": "1cbIF1wUJSF3WWPk",
            "data": {
                "attack": {
                    "value": ""
                },
                "attackEffects": {
                    "value": []
                },
                "bonus": {
                    "value": 27
                },
                "damageRolls": {
                    "afw854mi4ui6f02xhxld": {
                        "damage": "3d12+10",
                        "damageType": "bludgeoning"
                    }
                },
                "description": {
                    "value": ""
                },
                "rules": [],
                "slug": null,
                "source": {
                    "value": ""
                },
                "traits": {
                    "custom": "",
                    "rarity": {
                        "value": "common"
                    },
                    "value": [
                        "evocation",
                        "magical",
                        "occult",
                        "range-increment-60",
                        "versatile-p",
                        "versatile-s"
                    ]
                },
                "weaponType": {
                    "value": "ranged"
                }
            },
            "effects": [],
            "flags": {},
            "img": "systems/pf2e/icons/default-icons/melee.svg",
            "name": "Telekinetic Object",
            "sort": 400000,
            "type": "melee"
        },
        {
            "_id": "Yi4K7PbKaZWlXxWj",
            "data": {
                "actionCategory": {
                    "value": "interaction"
                },
                "actionType": {
                    "value": "passive"
                },
                "actions": {
                    "value": null
                },
                "description": {
                    "value": "<p>A poltergeist is tied to a location and can't travel more than 120 feet from the place where it was created or formed. Some poltergeists are instead bound to a specific room, building, or similar area</p>\n<p>The poltergeist is tied to its watchtower.</p>"
                },
                "requirements": {
                    "value": ""
                },
                "rules": [],
                "slug": null,
                "source": {
                    "value": ""
                },
                "traits": {
                    "custom": "",
                    "rarity": {
                        "value": "common"
                    },
                    "value": []
                },
                "trigger": {
                    "value": ""
                },
                "weapon": {
                    "value": ""
                }
            },
            "effects": [],
            "flags": {},
            "img": "systems/pf2e/icons/actions/Passive.webp",
            "name": "Site Bound",
            "sort": 500000,
            "type": "action"
        },
        {
            "_id": "fKIQ9ycEVVT8L5Cc",
            "data": {
                "actionCategory": {
                    "value": "interaction"
                },
                "actionType": {
                    "value": "passive"
                },
                "actions": {
                    "value": null
                },
                "description": {
                    "value": "<p>A monster with darkvision can see perfectly well in areas of darkness and dim light, though such vision is in black and white only. Some forms of magical darkness, such as a 4th-level @Compendium[pf2e.spells-srd.Darkness]{Darkness} spell, block normal darkvision. A monster with @Compendium[pf2e.bestiary-ability-glossary-srd.Greater Darkvision]{Greater Darkvision}, however, can see through even these forms of magical darkness.</p>"
                },
                "requirements": {
                    "value": ""
                },
                "rules": [],
                "slug": "darkvision",
                "source": {
                    "value": ""
                },
                "traits": {
                    "custom": "",
                    "rarity": {
                        "value": "common"
                    },
                    "value": []
                },
                "trigger": {
                    "value": ""
                },
                "weapon": {
                    "value": ""
                }
            },
            "effects": [],
            "flags": {
                "core": {
                    "sourceId": "Compendium.pf2e.bestiary-ability-glossary-srd.qCCLZhnp2HhP3Ex6"
                }
            },
            "img": "systems/pf2e/icons/default-icons/action.svg",
            "name": "Darkvision",
            "sort": 600000,
            "type": "action"
        },
        {
            "_id": "smEk0yh1Pe95Nvsc",
            "data": {
                "actionCategory": {
                    "value": "defensive"
                },
                "actionType": {
                    "value": "passive"
                },
                "actions": {
                    "value": null
                },
                "description": {
                    "value": "<p>A poltergeist is naturally invisible. It becomes visible only when it uses Frighten.</p>"
                },
                "requirements": {
                    "value": ""
                },
                "rules": [],
                "slug": null,
                "source": {
                    "value": ""
                },
                "traits": {
                    "custom": "",
                    "rarity": {
                        "value": "common"
                    },
                    "value": []
                },
                "trigger": {
                    "value": ""
                },
                "weapon": {
                    "value": ""
                }
            },
            "effects": [],
            "flags": {},
            "img": "systems/pf2e/icons/actions/Passive.webp",
            "name": "Natural Invisibility",
            "sort": 700000,
            "type": "action"
        },
        {
            "_id": "pvdHMw62l3uanob8",
            "data": {
                "actionCategory": {
                    "value": "defensive"
                },
                "actionType": {
                    "value": "passive"
                },
                "actions": {
                    "value": null
                },
                "description": {
                    "value": "<p>When the watchtower poltergeist is destroyed, it re-forms, fully healed, at the watchtower after 12 hours. Destroying the poltergeist and lighting its watchtower's brazier permanently destroys it.</p>"
                },
                "requirements": {
                    "value": ""
                },
                "rules": [],
                "slug": null,
                "source": {
                    "value": ""
                },
                "traits": {
                    "custom": "",
                    "rarity": {
                        "value": "common"
                    },
                    "value": [
                        "necromancy",
                        "occult"
                    ]
                },
                "trigger": {
                    "value": ""
                },
                "weapon": {
                    "value": ""
                }
            },
            "effects": [],
            "flags": {},
            "img": "systems/pf2e/icons/actions/Passive.webp",
            "name": "Rejuvenation",
            "sort": 800000,
            "type": "action"
        },
        {
            "_id": "KZ4sC23Z3r4PS4V6",
            "data": {
                "actionCategory": {
                    "value": "defensive"
                },
                "actionType": {
                    "value": "reaction"
                },
                "actions": {
                    "value": null
                },
                "description": {
                    "value": "<p data-visibility=\"gm\"><strong>Trigger</strong> A creature approaches within 10 feet of the poltergeist. <strong>Effect</strong> The poltergeist makes a telekinetic object Strike against the triggering creature.</p>"
                },
                "requirements": {
                    "value": ""
                },
                "rules": [],
                "slug": null,
                "source": {
                    "value": ""
                },
                "traits": {
                    "custom": "",
                    "rarity": {
                        "value": "common"
                    },
                    "value": []
                },
                "trigger": {
                    "value": ""
                },
                "weapon": {
                    "value": ""
                }
            },
            "effects": [],
            "flags": {},
            "img": "systems/pf2e/icons/actions/Reaction.webp",
            "name": "Telekinetic Defense",
            "sort": 900000,
            "type": "action"
        },
        {
            "_id": "v8X1W0LmbkWRpOS6",
            "data": {
                "actionCategory": {
                    "value": "offensive"
                },
                "actionType": {
                    "value": "action"
                },
                "actions": {
                    "value": 1
                },
                "description": {
                    "value": "<p><strong>Requirement</strong> The poltergeist must be invisible. <strong>Effect</strong> The poltergeist becomes visible, appearing as a skeletal, ghostlike humanoid. Each creature within 30 feet must attempt a <span data-pf2-check=\"will\" data-pf2-dc=\"33\" data-pf2-traits=\"concentrate,emotion,fear,incapacitation,mental\" data-pf2-label=\"Frighten DC\" data-pf2-show-dc=\"gm\">Will</span> save, becoming @Compendium[pf2e.conditionitems.Frightened]{Frightened 2} on a failure. On a critical failure, it's also @Compendium[pf2e.conditionitems.Fleeing]{Fleeing} for as long as it's frightened. On a success, the creature is temporarily immune for 1 minute. At the start of its next turn, the poltergeist becomes invisible again.</p>"
                },
                "requirements": {
                    "value": ""
                },
                "rules": [],
                "slug": null,
                "source": {
                    "value": ""
                },
                "traits": {
                    "custom": "",
                    "rarity": {
                        "value": "common"
                    },
                    "value": [
                        "concentrate",
                        "emotion",
                        "fear",
                        "incapacitation",
                        "mental"
                    ]
                },
                "trigger": {
                    "value": ""
                },
                "weapon": {
                    "value": ""
                }
            },
            "effects": [],
            "flags": {},
            "img": "systems/pf2e/icons/actions/OneAction.webp",
            "name": "Frighten",
            "sort": 1000000,
            "type": "action"
        },
        {
            "_id": "RJlLjrzqdXREWyPR",
            "data": {
                "actionCategory": {
                    "value": "offensive"
                },
                "actionType": {
                    "value": "action"
                },
                "actions": {
                    "value": 2
                },
                "description": {
                    "value": "<p>The poltergeist telekinetically throws numerous small objects, such as dozens of pieces of silverware or books, either spreading them out among multiple foes or directing them at one target. When this effect is spread out among multiple foes, the poltergeist makes a telekinetic object Strike at a -2 penalty against each creature within 30 feet. These count as one attack for the poltergeist's multiple attack penalty, and the penalty doesn't increase until after all the attacks. When this effect has only one target, the poltergeist makes a telekinetic object Strike against the target, and the damage increases to [[/r 4d12+15 #damage]]{4d12+15 damage}. It deals [[/r 2d12 #damage]]{2d12 damage} on a failure, and no damage on a critical failure.</p>"
                },
                "requirements": {
                    "value": ""
                },
                "rules": [],
                "slug": null,
                "source": {
                    "value": ""
                },
                "traits": {
                    "custom": "",
                    "rarity": {
                        "value": "common"
                    },
                    "value": [
                        "concentrate",
                        "evocation",
                        "occult"
                    ]
                },
                "trigger": {
                    "value": ""
                },
                "weapon": {
                    "value": ""
                }
            },
            "effects": [],
            "flags": {},
            "img": "systems/pf2e/icons/actions/TwoActions.webp",
            "name": "Telekinetic Storm",
            "sort": 1100000,
            "type": "action"
        },
        {
            "_id": "J3tQ8tcSm16AM3H0",
            "data": {
                "description": {
                    "value": ""
                },
                "item": {
                    "value": 0
                },
                "mod": {
                    "value": 29
                },
                "proficient": {
                    "value": 0
                },
                "rules": [],
                "slug": null,
                "source": {
                    "value": ""
                },
                "traits": {
                    "custom": "",
                    "rarity": {
                        "value": "common"
                    },
                    "value": []
                }
            },
            "effects": [],
            "flags": {},
            "img": "systems/pf2e/icons/default-icons/lore.svg",
            "name": "Acrobatics",
            "sort": 1200000,
            "type": "lore"
        },
        {
            "_id": "dtrQvP8y05cBe6dj",
            "data": {
                "description": {
                    "value": ""
                },
                "item": {
                    "value": 0
                },
                "mod": {
                    "value": 30
                },
                "proficient": {
                    "value": 0
                },
                "rules": [],
                "slug": null,
                "source": {
                    "value": ""
                },
                "traits": {
                    "custom": "",
                    "rarity": {
                        "value": "common"
                    },
                    "value": []
                }
            },
            "effects": [],
            "flags": {},
            "img": "systems/pf2e/icons/default-icons/lore.svg",
            "name": "Intimidation",
            "sort": 1300000,
            "type": "lore"
        },
        {
            "_id": "i5BbyyHPPgn7NssZ",
            "data": {
                "description": {
                    "value": ""
                },
                "item": {
                    "value": 0
                },
                "mod": {
                    "value": 29
                },
                "proficient": {
                    "value": 0
                },
                "rules": [],
                "slug": null,
                "source": {
                    "value": ""
                },
                "traits": {
                    "custom": "",
                    "rarity": {
                        "value": "common"
                    },
                    "value": []
                }
            },
            "effects": [],
            "flags": {},
            "img": "systems/pf2e/icons/default-icons/lore.svg",
            "name": "Stealth",
            "sort": 1400000,
            "type": "lore"
        }
    ],
    "name": "Watchtower Poltergeist",
    "token": {
        "disposition": -1,
        "height": 1,
        "img": "systems/pf2e/icons/default-icons/npc.svg",
        "name": "Watchtower Poltergeist",
        "width": 1
    },
    "type": "npc"
}
