{
    "_id": "bcxVvIbuZWOvsKcA",
    "data": {
        "description": {
            "value": "<p>Granted by @Compendium[pf2e.equipment-srd.Darkvision Elixir (Moderate)]{Darkvision Elixir (Moderate)}</p>\n<p>Implemented effects:</p>\n<ul>\n<li>Gain Darkvision</li>\n</ul>"
        },
        "duration": {
            "expiry": "turn-start",
            "sustained": false,
            "unit": "hours",
            "value": 1
        },
        "level": {
            "value": 4
        },
        "rules": [
            {
                "key": "Sense",
                "label": "Darkvision",
                "selector": "darkvision"
            }
        ],
        "source": {
            "value": ""
        },
        "start": {
            "initiative": null,
            "value": 0
        },
        "target": null,
        "tokenIcon": {
            "show": true
        },
        "traits": {
            "custom": "",
            "rarity": {
                "value": "common"
            },
            "value": []
        }
    },
    "effects": [],
    "flags": {},
    "img": "systems/pf2e/icons/equipment/alchemical-items/alchemical-elixirs/darkvision-elixir.webp",
    "name": "Effect: Darkvision Elixir (Moderate)",
    "type": "effect"
}
