{
    "_id": "K1tzUClsozKcdpIe",
    "content": "<h1 class=\"title\">Halcamora (Lady of Ripe Bounty) [NG]</h1>\n<p class=\"title\"><span id=\"ctl00_MainContent_DetailedOutput\"><span id=\"ctl00_MainContent_DetailedOutput\"><strong>Halcamora</strong> is an agathion empyreal lord who watches over gardens, parks, and wineries.</p>\n<p></span><span id=\"ctl00_MainContent_DetailedOutput\"><strong>Edicts</strong> Cultivate gardens, share wine, keep helpful insects, teach others to farm</p>\n<p><strong>Anathema</strong> Salt or despoil the earth, spread plague or pestilence, carelessly use pesticides</p>\n<p><strong>Follower Alignments</strong> LG, NG, N</span></p>\n<p></span></p>\n<h2 class=\"title\">Devotee Benefits</h2>\n<div>\n<div><strong>Divine Ability</strong> Constitution or Wisdom</div>\n<div><strong>Divine Font</strong> heal</div>\n<div><strong>Divine Skill</strong> Nature</div>\n<div><strong>Favored Weapon</strong> club</div>\n<div><strong>Domains</strong> indulgence, luck, nature, swarm</div>\n<div><strong>Cleric Spells</strong> 1st: summon plant or fungus, 2nd: touch of idiocy, 4th: speak with plants</div>\n</div>",
    "flags": {},
    "name": "Halcamora",
    "permission": {
        "default": 0
    }
}
