{
    "_id": "eErEiVmBqltYXFJ6",
    "content": "<h1 class=\"title\">Iomedae (The Inheritor) [LG]</h1>\n<p class=\"title\"><span id=\"ctl00_MainContent_DetailedOutput\"><img class=\"thumbnail\" style=\"float: right;\" src=\"https://2e.aonprd.com/Images/Deities/Iomedae.png\" width=\"119\" height=\"119\" /><span id=\"ctl00_MainContent_DetailedOutput\">Iomedae, the youngest among the prominent deities of the Inner Sea region, had already proven herself worthy of divinity before her ascension. Born in Cheliax, she followed the path of the sword and fought evil, eventually becoming a paladin of Aroden's herald Arazni. She became a legend among the Shining Crusade, leading the Knights of Ozem in a series of victories over the Whispering Tyrant. Iomedae became the third known mortal to pass the Test of the Starstone when she ascended to divinity in 3832 AR. As Arazni had been slain during the Shining Crusade, Aroden elevated the newly ascended goddess to be his new herald. When Aroden himself died, Iomedae inherited most of his worshippers and became a major deity of honor and justice.</p>\n<p><strong>Edicts</strong> be temperate, fight for justice and honor, hold valor in your heart</p>\n<p><strong>Anathema</strong> abandon a companion in need, dishonor yourself, refuse a challenge from an equal</p>\n<p><strong>Areas of Concern</strong> honor, justice, rulership, and valor</p>\n<p><strong>Follower Alignments</strong> LG, NG</span></p>\n<p></span></p>\n<h2 class=\"title\">Devotee Benefits</h2>\n<div>\n<div><strong>Divine Ability</strong> Strength or Constitution</div>\n<div><strong>Divine Font</strong> heal</div>\n<div><strong>Divine Skill</strong> Intimidation</div>\n<div><strong>Favored Weapon</strong> longsword</div>\n<div><strong>Domains</strong> confidence, might, truth, zeal</div>\n<div><strong>Alternate Domains</strong> duty</div>\n<div><strong>Cleric Spells</strong> 1st: true strike, 2nd: enlarge, 4th: fire shield</div>\n</div>\n<h2>Divine Intercession</h2>\n<p><span id=\"ctl00_MainContent_DetailedOutput\">Iomedae grants her blessings to those who show valor in trying times.</p>\n<p><strong>Minor Boon</strong>: You always present yourself at your best. Your clothing and person are always clean and unrumpled, the metal of your blade and armor shining and unblemished. This doesn't prevent you from being exposed to diseases and other afflictions via filth, but it protects you as well as if you had washed thoroughly right away.</p>\n<p><strong>Moderate Boon</strong>: Your heart beats with a determined valor. Once, Iomedae ends all negative effects affecting you, unless they are from an artifact, deity, or similarly powerful source; she also restores all lost Hit Points and replenishes your spells, Focus Points, and other daily resources.</p>\n<p><strong>Major Boon</strong>: Iomedae imbues your blade with great power. Longswords you wield gain the axiomatic, holy, and <em>major striking</em> runes while you hold them. These property runes count toward the number of runes you can have on your weapon, and if this would cause your weapon to exceed its limit, choose which ones to keep each day when you prepare. You gain a +2 status bonus to attack rolls with longswords.</p>\n<p><strong>Minor Curse</strong>: Your blade and armor have dulled like lead. Your weapons, armor, and shields have half their usual Hit Points and Break Threshold.</p>\n<p><strong>Moderate Curse</strong>: Tactical advantages never seem to work the way you planned. You can't receive a circumstance bonus to your attack rolls, and enemies don't take any circumstance penalties to their AC against your attacks.</p>\n<p><strong>Major Curse</strong>: All blades reject your wicked heart. Any weapon you wield automatically becomes broken after you Strike with it. This curse can't break artifacts or similarly powerful weapons.</span></p>",
    "flags": {},
    "name": "Iomedae",
    "permission": {
        "default": 0
    }
}
