{
    "_id": "wjXNXFWBLbJaeZQR",
    "content": "<h1 class=\"title\">Ketephys (The Hunter) [CG]</h1>\n<p class=\"title\"><span id=\"ctl00_MainContent_DetailedOutput\"><span id=\"ctl00_MainContent_DetailedOutput\"><img style=\"float: right;\" src=\"https://i.imgur.com/M0fiPDy.png\" alt=\"\" width=\"119\" height=\"107\" /><strong>Ketephys</strong> is the tight-lipped elven god of the hunt, who instructs his followers to care for the forest and defend it from his arch-enemy @Compendium[pf2e.pathfinder-bestiary.Treerazer]{Treerazer}.</p>\n<p></span><span id=\"ctl00_MainContent_DetailedOutput\"><strong>Edicts</strong> Hunt and kill demons and undead, maintain the health of the forest, provide for your community</p>\n<p><strong>Anathema</strong> Take more than needed from the wilderness, hunt an animal for sport, aid Treerazer or his minions</p>\n<p><strong>Areas of Concern</strong> hunting and the moon</p>\n<p><strong>Follower Alignments</strong> NG, CG</span></p>\n<p></span></p>\n<h2 class=\"title\">Devotee Benefits</h2>\n<div>\n<div><strong>Divine Ability</strong> Dexterity or Wisdom</div>\n<div><strong>Divine Font</strong> heal</div>\n<div><strong>Divine Skill</strong> Survival</div>\n<div><strong>Favored Weapon</strong> longbow</div>\n<div><strong>Domains</strong> darkness, moon, nature, secrecy</div>\n<div><strong>Cleric Spells</strong> 1st: pass without trace, 2nd: invisibility, 3rd: animal vision</div>\n</div>",
    "flags": {},
    "name": "Ketephys",
    "permission": {
        "default": 0
    }
}
