{
    "_id": "pm8H2DbtrHM01KNV",
    "content": "<h1 class=\"title\">Naderi (The Lost Maiden) [N]</h1>\n<p class=\"title\"><span id=\"ctl00_MainContent_DetailedOutput\"><span id=\"ctl00_MainContent_DetailedOutput\"><strong>Edicts</strong> Comfort and encourage lovers, help the suffering escape their circumstances in life or in death</p>\n<p><strong>Anathema</strong> Dismiss or mock a creature's grief, separate lovers, torture a creature</p>\n<p><strong>Follower Alignments</strong> NG, N, NE</span></p>\n<p></span></p>\n<h2 class=\"title\">Devotee Benefits</h2>\n<div>\n<div><strong>Divine Ability</strong> Constitution or Charisma</div>\n<div><strong>Divine Font</strong> harm</div>\n<div><strong>Divine Skill</strong> Diplomacy</div>\n<div><strong>Favored Weapon</strong> dagger</div>\n<div><strong>Domains</strong> death, passion, sorrow, water</div>\n<div><strong>Cleric Spells</strong> 1st: soothe, 4th: crushing despair, 5th: drop dead</div>\n</div>",
    "flags": {},
    "name": "Naderi",
    "permission": {
        "default": 0
    }
}
