{
    "_id": "gsFaxWHbZmc1moY6",
    "content": "<h1 class=\"title\">Nalinivati (The Serpent's Kiss) [N]</h1>\n<p class=\"title\"><span id=\"ctl00_MainContent_DetailedOutput\"><span id=\"ctl00_MainContent_DetailedOutput\"><strong>Edicts</strong> Seek out magic and use it, use poison, heal poisons, bear or adopt children, raise snakes</p>\n<p><strong>Anathema</strong> Kill a harmless snake or swan, spurn friends due to jealousy or romantic competition, betray your offspring, separate lovers</p>\n<p><strong>Follower Alignments</strong> NG, LN, N, NE</span></p>\n<p></span></p>\n<h2 class=\"title\">Devotee Benefits</h2>\n<div>\n<div><strong>Divine Ability</strong> Wisdom or Charisma</div>\n<div><strong>Divine Font</strong> harm or heal</div>\n<div><strong>Divine Skill</strong> Arcana</div>\n<div><strong>Favored Weapon</strong> jaws or urumi</div>\n<div><strong>Domains</strong> glyph, magic, passion, wyrmkin</div>\n<div><strong>Cleric Spells</strong> 1st: charm, 2nd: invisibility, 3rd: lightning bolt, 4th: reflective scales, 5th: subconscious suggestion, 6th: mislead, 7th: contingency, 8th: scintillating pattern, 9th: storm of vengeance</div>\n</div>",
    "flags": {},
    "name": "Nalinivati",
    "permission": {
        "default": 0
    }
}
