{
    "_id": "65o189p2eUPbqaDK",
    "content": "<h1 class=\"title\">Narriseminek (The Crownless, the Maker of Kings) [CN]</h1>\n<p class=\"title\"><span id=\"ctl00_MainContent_DetailedOutput\"><span id=\"ctl00_MainContent_DetailedOutput\">Called the Crownless and the Maker of Kings, Narriseminek often appears as a protean with a scar around their pate, as if left by a burning crown. Their true form, though similar, is rarely seen: an iridescent and golden protean with a halo of burning eyes but empty eye sockets. The protean lord of ascendance, keketars, and revelations rarely interacts with non-proteans, but to their protean worshippers, they offer exalted transformations and revelations that can change a being's entire outlook. Worshippers of Narriseminek, both mortal and protean, spend their time divining the future and using magic to transform their bodies-a practice they also extend to any other willing creatures who ask. Their revelations take the form of patterns emerging in otherwise random events; Narriseminek's followers reject astrology and other forms of divination based on predictable cycles.</p>\n<p><strong>Edicts</strong> Divine the future, transform the bodies of willing creatures, rebel against organized structures</p>\n<p><strong>Anathema</strong> Refuse to speak to a keketar, eschew a challenge by turning down a promotion or an advancement</p>\n<p><strong>Areas of Concern</strong> ascendance, keketars, and revelations</p>\n<p><strong>Follower Alignments</strong> CG, CN</span></p>\n<p></span></p>\n<h2 class=\"title\">Devotee Benefits</h2>\n<div>\n<div><strong>Divine Ability</strong> Dexterity or Wisdom</div>\n<div><strong>Divine Font</strong> harm or heal</div>\n<div><strong>Divine Skill</strong> Occultism</div>\n<div><strong>Favored Weapon</strong> hatchet</div>\n<div><strong>Domains</strong> delirium, freedom, knowledge, perfection</div>\n<div><strong>Cleric Spells</strong> 1st: mindlink, 4th: confusion, 5th: synesthesia</div>\n</div>",
    "flags": {},
    "name": "Narriseminek",
    "permission": {
        "default": 0
    }
}
