{
    "_id": "EUOAV02rHz96jMPh",
    "content": "<h1 class=\"title\">Whispering Way<span id=\"ctl00_MainContent_DetailedOutput\"></span></h1>\n<p class=\"title\"><span id=\"ctl00_MainContent_DetailedOutput\"><img class=\"thumbnail\" style=\"float: right;\" src=\"https://2e.aonprd.com/Images/Deities/WhisperingWay.png\" width=\"119\" height=\"128\" /><span id=\"ctl00_MainContent_DetailedOutput\">These cultists believe undeath is the truest form of existence, and life is meant to be spent in preparation for transition to a more glorious unlife after death.</p>\n<p><strong>Edicts</strong> seek methods to become undead (a lich if possible), oppose those who seek to destroy undead, protect necromantic secrets, serve the Whispering Tyrant</p>\n<p><strong>Anathema</strong> destroy necromantic texts (unless they reveal secrets of the Whispering Way), teach others of the Whispering Way other than by whispering, use positive energy to harm undead</p>\n<p><strong>Follower Alignments</strong> LE, NE, CE</span></p>\n<p></span></p>",
    "flags": {},
    "name": "Whispering Way",
    "permission": {
        "default": 0
    }
}
