{
    "_id": "B53sWzd5irAoLn2U",
    "data": {
        "actionCategory": {
            "value": ""
        },
        "actionType": {
            "value": "passive"
        },
        "actions": {
            "value": null
        },
        "description": {
            "value": "<p>Using a mixture of dinosaur bones and the bones of your ancestors to focus your magic, you animate lizards and dinosaurs to carry messages or serve as mounts. You can cast @Compendium[pf2e.spells-srd.Animal Messenger]{Animal Messenger} and @Compendium[pf2e.spells-srd.Phantom Steed]{Phantom Steed} as primal innate spells once per day each. The animal messenger is always a Tiny dinosaur or lizard, and your innate spell transforms it from bones to flesh, even if there are no dinosaurs or lizards nearby. The phantom steed looks like a dinosaur rather than a horse but functions identically.</p>"
        },
        "featType": {
            "value": "ancestry"
        },
        "level": {
            "value": 9
        },
        "location": "",
        "prerequisites": {
            "value": []
        },
        "rules": [],
        "source": {
            "value": "Pathfinder Lost Omens: Ancestry Guide"
        },
        "traits": {
            "custom": "",
            "rarity": {
                "value": "common"
            },
            "value": [
                "lizardfolk"
            ]
        }
    },
    "effects": [],
    "flags": {},
    "img": "systems/pf2e/icons/features/feats/feats.webp",
    "name": "Bone Caller",
    "type": "feat"
}
