{
    "_id": "0XGLdVbEIISOOuuO",
    "data": {
        "actionCategory": {
            "value": ""
        },
        "actionType": {
            "value": "action"
        },
        "actions": {
            "value": 1
        },
        "description": {
            "value": "<p>You carefully take aim before making your attack in order to avoid your foe's concealment and cover.</p>\n<p>On your next Strike with a thrown weapon before the end of your turn, you gain a +1 circumstance bonus to your attack roll and ignore your target's @Compendium[pf2e.conditionitems.Concealed]{Concealed} condition, as well as the target's lesser cover or standard cover; if the target had greater cover, they instead have only standard cover against the Strike.</p>"
        },
        "featType": {
            "value": "class"
        },
        "level": {
            "value": 8
        },
        "location": "",
        "prerequisites": {
            "value": []
        },
        "rules": [
            {
                "key": "ToggleProperty",
                "label": "Use Bullseye",
                "property": "flags.pf2e.rollOptions.attack-roll.bullseye"
            },
            {
                "key": "FlatModifier",
                "predicate": {
                    "all": [
                        "bullseye"
                    ]
                },
                "roll-options": [
                    "all"
                ],
                "selector": "attack",
                "type": "circumstance",
                "value": 1
            }
        ],
        "source": {
            "value": "Pathfinder Advanced Player's Guide"
        },
        "traits": {
            "custom": "",
            "rarity": {
                "value": "common"
            },
            "value": [
                "rogue"
            ]
        }
    },
    "effects": [],
    "flags": {},
    "img": "systems/pf2e/icons/features/feats/feats.webp",
    "name": "Bullseye",
    "type": "feat"
}
