{
    "_id": "UsJtnrqWOs7puRZa",
    "data": {
        "actionCategory": {
            "value": ""
        },
        "actionType": {
            "value": "passive"
        },
        "actions": {
            "value": null
        },
        "description": {
            "value": "<p>Many Tian-Dan claim to have dragon blood in their veins, and in your case, this is true-you can spit energy, and you might have an especially visible sign of your draconic heritage. Choose one of the following cantrips: @Compendium[pf2e.spells-srd.Acid Splash]{Acid Splash}, @Compendium[pf2e.spells-srd.Electric Arc]{Electric Arc}, @Compendium[pf2e.spells-srd.Produce Flame]{Produce Flame}, or @Compendium[pf2e.spells-srd.Ray of Frost]{Ray of Frost}. You can cast this spell as an innate arcane spell at will, and when you cast it, the spell's energy emerges from your mouth.</p>"
        },
        "featType": {
            "value": "ancestry"
        },
        "level": {
            "value": 1
        },
        "prerequisites": {
            "value": [
                {
                    "value": "Tian-Dan ethnicity"
                }
            ]
        },
        "rules": [],
        "source": {
            "value": "Pathfinder Lost Omens: Character Guide"
        },
        "traits": {
            "custom": "",
            "rarity": {
                "value": "common"
            },
            "value": [
                "human"
            ]
        }
    },
    "effects": [],
    "flags": {},
    "img": "systems/pf2e/icons/features/feats/feats.webp",
    "name": "Dragon Spit",
    "type": "feat"
}
