{
    "_id": "tx9pkrpmtqe4FnvS",
    "data": {
        "actionCategory": {
            "value": ""
        },
        "actionType": {
            "value": "passive"
        },
        "actions": {
            "value": null
        },
        "description": {
            "value": "<p>Each day when you make your daily preparations, you can attune yourself to one element of your choice: air, earth, fire, or water.</p>\n<p>You gain resistance equal to half your level (minimum 1 resistance) against damage dealt by effects with your attuned elemental trait.</p>\n<p>This attunement lasts until you next make your daily preparations.</p>\n<hr />\n<p><strong>Special</strong> You can't select another dedication feat until you've gained two other feats from the elementalist archetype.</p>"
        },
        "featType": {
            "value": "archetype"
        },
        "level": {
            "value": 2
        },
        "location": "",
        "prerequisites": {
            "value": [
                {
                    "value": "elemental magic"
                }
            ]
        },
        "rules": [],
        "source": {
            "value": ""
        },
        "traits": {
            "custom": "",
            "rarity": {
                "value": "common"
            },
            "value": [
                "archetype",
                "dedication"
            ]
        }
    },
    "effects": [],
    "flags": {},
    "img": "systems/pf2e/icons/default-icons/feat.svg",
    "name": "Elementalist Dedication",
    "type": "feat"
}
