{
    "_id": "EGtuOZ3E9y0qZ1oJ",
    "data": {
        "actionCategory": {
            "value": ""
        },
        "actionType": {
            "value": "passive"
        },
        "actions": {
            "value": null
        },
        "description": {
            "value": "<p>You can use your magic to transform into a small creature of a type that commonly serves as a spellcaster's familiar, potentially allowing you to safely scout for your party while retaining a degree of spellcasting ability. You gain the @Compendium[pf2e.spells-srd.Familiar Form]{Familiar Form} focus spell. Increase the number of Focus Points in your focus pool by 1.</p>"
        },
        "featType": {
            "value": "archetype"
        },
        "level": {
            "value": 8
        },
        "prerequisites": {
            "value": [
                {
                    "value": "Spellmaster Dedication"
                }
            ]
        },
        "rules": [
            {
                "key": "ActiveEffectLike",
                "mode": "add",
                "path": "data.resources.focus.max",
                "value": 1
            }
        ],
        "source": {
            "value": "Pathfinder Lost Omens: Pathfinder Society Guide"
        },
        "traits": {
            "custom": "",
            "rarity": {
                "value": "common"
            },
            "value": [
                "archetype"
            ]
        }
    },
    "effects": [],
    "flags": {},
    "img": "systems/pf2e/icons/features/feats/feats.webp",
    "name": "Familiar Form",
    "type": "feat"
}
