{
    "_id": "8DDwqrYHie33cf6d",
    "data": {
        "actionCategory": {
            "value": ""
        },
        "actionType": {
            "value": "passive"
        },
        "actions": {
            "value": null
        },
        "description": {
            "value": "<p>You've trained with weapons used by your genie ancestors. You are trained with @Compendium[pf2e.equipment-srd.Falchion]{Falchions}, @Compendium[pf2e.equipment-srd.Ranseur]{Ranseurs}, @Compendium[pf2e.equipment-srd.Scimitar]{Scimitars}, and @Compendium[pf2e.equipment-srd.Trident]{Tridents}.</p>\n<p>In addition, you gain access to all uncommon geniekin weapons. For the purpose of determining your proficiency, martial geniekin weapons are simple weapons and advanced geniekin weapons are martial weapons.</p>"
        },
        "featType": {
            "value": "ancestry"
        },
        "level": {
            "value": 1
        },
        "location": "",
        "prerequisites": {
            "value": []
        },
        "rules": [
            {
                "key": "ActiveEffectLike",
                "mode": "upgrade",
                "path": "data.martial.weapon-base-falchion.rank",
                "value": 1
            },
            {
                "key": "ActiveEffectLike",
                "mode": "upgrade",
                "path": "data.martial.weapon-base-ranseur.rank",
                "value": 1
            },
            {
                "key": "ActiveEffectLike",
                "mode": "upgrade",
                "path": "data.martial.weapon-base-scimitar.rank",
                "value": 1
            },
            {
                "key": "ActiveEffectLike",
                "mode": "upgrade",
                "path": "data.martial.weapon-base-trident.rank",
                "value": 1
            }
        ],
        "source": {
            "value": "Pathfinder Lost Omens: Ancestry Guide"
        },
        "traits": {
            "custom": "",
            "rarity": {
                "value": "common"
            },
            "value": [
                "ifrit",
                "oread",
                "suli",
                "sylph",
                "undine"
            ]
        }
    },
    "effects": [
        {
            "_id": "oN8iJrc7Ms7vti7Z",
            "changes": [
                {
                    "key": "data.martial.martial.familiarity",
                    "mode": 5,
                    "value": "{ \"trait\": \"geniekin\", \"category\": \"advanced\" }"
                },
                {
                    "key": "data.martial.simple.familiarity",
                    "mode": 5,
                    "value": "{ \"trait\": \"geniekin\", \"category\": \"martial\" }"
                }
            ],
            "disabled": false,
            "duration": {
                "startTime": null
            },
            "flags": {},
            "icon": "systems/pf2e/icons/features/feats/feats.webp",
            "label": "Genie Weapon Familiarity",
            "origin": "",
            "tint": null,
            "transfer": true
        }
    ],
    "flags": {},
    "img": "systems/pf2e/icons/features/feats/feats.webp",
    "name": "Genie Weapon Familiarity",
    "type": "feat"
}
