{
    "_id": "CvtJ98EZvBGSCLOX",
    "data": {
        "actionCategory": {
            "value": "interaction"
        },
        "actionType": {
            "value": "passive"
        },
        "actions": {
            "value": null
        },
        "description": {
            "value": "<p>You've trained with weapons ideally suited to marshes and dense forests. You are trained with @Compendium[pf2e.equipment-srd.Blowgun]{Blowguns}, @Compendium[pf2e.equipment-srd.Hatchet]{Hatchets}, @Compendium[pf2e.equipment-srd.Scythe]{Scythes}, @Compendium[pf2e.equipment-srd.Shortbow]{Shortbows}, and @Compendium[pf2e.equipment-srd.Composite Shortbow]{Composite Shortbows}.</p>\n<p>You also gain access to all uncommon grippli weapons. For the purpose of determining your proficiency, martial grippli weapons are simple weapons, and advanced grippli weapons are martial weapons.</p>"
        },
        "featType": {
            "value": "ancestry"
        },
        "level": {
            "value": 1
        },
        "location": "",
        "prerequisites": {
            "value": []
        },
        "rules": [],
        "source": {
            "value": "Pathfinder Lost Omens: The Mwangi Expanse"
        },
        "traits": {
            "custom": "",
            "rarity": {
                "value": "common"
            },
            "value": [
                "grippli"
            ]
        }
    },
    "effects": [],
    "flags": {},
    "img": "systems/pf2e/icons/default-icons/feat.svg",
    "name": "Grippli Weapon Familiarity",
    "type": "feat"
}
