{
    "_id": "aznyI5mfMdEFSDr8",
    "data": {
        "actionCategory": {
            "value": ""
        },
        "actionType": {
            "value": "passive"
        },
        "actions": {
            "value": null
        },
        "description": {
            "value": "<p>There's no journey too far or burden too heavy when your friends are at your side.</p>\n<p>Increase your maximum and encumbered Bulk limits by 1. In addition, you gain a +10-foot circumstance bonus to your Speed during overland travel.</p>"
        },
        "featType": {
            "value": "ancestry"
        },
        "level": {
            "value": 9
        },
        "prerequisites": {
            "value": []
        },
        "rules": [],
        "source": {
            "value": "Pathfinder Advanced Player's Guide"
        },
        "traits": {
            "custom": "",
            "rarity": {
                "value": "common"
            },
            "value": [
                "human"
            ]
        }
    },
    "effects": [],
    "flags": {},
    "img": "systems/pf2e/icons/features/feats/feats.webp",
    "name": "Hardy Traveler",
    "type": "feat"
}
