{
    "_id": "7eyy63BkMv3enk5r",
    "data": {
        "actionCategory": {
            "value": ""
        },
        "actionType": {
            "value": "passive"
        },
        "actions": {
            "value": null
        },
        "description": {
            "value": "<p>Your body can internally synthesize oxygen for limited periods of time. When you hold your breath, you can do so for an additional hour due to your internal air reservoirs. At the end of this hour, your air reservoirs are expended. Refilling your empty air reservoirs takes 10 minutes of exposure to breathable air.</p>"
        },
        "featType": {
            "value": "ancestry"
        },
        "level": {
            "value": 9
        },
        "location": "",
        "prerequisites": {
            "value": []
        },
        "rules": [],
        "source": {
            "value": "Pathfinder Lost Omens: Ancestry Guide"
        },
        "traits": {
            "custom": "",
            "rarity": {
                "value": "common"
            },
            "value": [
                "android"
            ]
        }
    },
    "effects": [],
    "flags": {},
    "img": "systems/pf2e/icons/features/feats/feats.webp",
    "name": "Internal Respirator",
    "type": "feat"
}
