{
    "_id": "0yPbPVEESwB6Bdfw",
    "data": {
        "actionCategory": {
            "value": "offensive"
        },
        "actionType": {
            "value": "action"
        },
        "actions": {
            "value": 1
        },
        "description": {
            "value": "<p>You make an assessment informed by your knowledge of how a creature fights. Attempt a check to Recall Knowledge about a creature. You gain a +1 circumstance bonus to your check if you previously hit the creature with a Strike this turn. If your check is successful, recharge your Spellstrike. The subject of your check is temporarily immune to Magus's Analysis for 1 day.</p>"
        },
        "featType": {
            "value": "class"
        },
        "level": {
            "value": 1
        },
        "location": "",
        "prerequisites": {
            "value": [
                {
                    "value": "Spellstrike"
                }
            ]
        },
        "rules": [],
        "source": {
            "value": ""
        },
        "traits": {
            "custom": "",
            "rarity": {
                "value": "common"
            },
            "value": [
                "magus"
            ]
        }
    },
    "effects": [],
    "flags": {},
    "img": "systems/pf2e/icons/features/feats/feats.webp",
    "name": "Magus's Analysis",
    "type": "feat"
}
