{
    "_id": "pmVaj53saxLE28Pl",
    "data": {
        "actionCategory": {
            "value": "offensive"
        },
        "actionType": {
            "value": "action"
        },
        "actions": {
            "value": 2
        },
        "description": {
            "value": "<p><strong>Requirements</strong> Your Spellstrike is charged.</p>\n<hr />\n<p>You pierce through your foe's resistance. Make a Spellstrike. The spell you cast as part of the Spellstrike ignores an amount of the target's resistance to acid, cold, electricity, fire, or sonic damage equal to your level. This applies to all damage the spell deals, including @Compendium[pf2e.conditionitems.Persistent Damage]{Persistent Damage} and damage caused by an ongoing effect of the spell. A creature's immunities are unaffected.</p>"
        },
        "featType": {
            "value": "class"
        },
        "level": {
            "value": 12
        },
        "location": "",
        "prerequisites": {
            "value": [
                {
                    "value": "Spellstrike"
                }
            ]
        },
        "rules": [],
        "source": {
            "value": ""
        },
        "traits": {
            "custom": "",
            "rarity": {
                "value": "common"
            },
            "value": [
                "magus"
            ]
        }
    },
    "effects": [],
    "flags": {},
    "img": "systems/pf2e/icons/features/feats/feats.webp",
    "name": "Overwhelming Spellstrike",
    "type": "feat"
}
