{
    "_id": "DP5VVZHERQlYuYTa",
    "data": {
        "actionCategory": {
            "value": ""
        },
        "actionType": {
            "value": "passive"
        },
        "actions": {
            "value": null
        },
        "description": {
            "value": "<p>Your nanites can augment your defenses. You can choose to activate @Compendium[pf2e.feats-srd.Nanite Surge]{Nanite Surge} when you attempt a saving throw, instead of when you attempt a skill check. If you do, you gain a +2 status bonus to the triggering saving throw.</p>"
        },
        "featType": {
            "value": "ancestry"
        },
        "level": {
            "value": 5
        },
        "location": "",
        "prerequisites": {
            "value": [
                {
                    "value": "Nanite Surge"
                }
            ]
        },
        "rules": [
            {
                "key": "FlatModifier",
                "predicate": {
                    "all": [
                        "nanite-surge"
                    ]
                },
                "roll-options": [
                    "all"
                ],
                "selector": "saving-throw",
                "type": "status",
                "value": 2
            }
        ],
        "source": {
            "value": "Pathfinder Lost Omens: Ancestry Guide"
        },
        "traits": {
            "custom": "",
            "rarity": {
                "value": "common"
            },
            "value": [
                "android"
            ]
        }
    },
    "effects": [],
    "flags": {},
    "img": "systems/pf2e/icons/features/feats/feats.webp",
    "name": "Protective Subroutine",
    "type": "feat"
}
