{
    "_id": "JcXzKwrdMkNszrJQ",
    "data": {
        "actionCategory": {
            "value": ""
        },
        "actionType": {
            "value": "action"
        },
        "actions": {
            "value": 1
        },
        "description": {
            "value": "<p>You pour invigorating positive energy into a living ally.</p>\n<p>If the next action you use is to cast @Compendium[pf2e.spells-srd.Heal]{Heal} to restore Hit Points to a single living creature, the target deals an additional 1d6 positive damage with its melee weapons and unarmed attacks until the end of its next turn. If the <em>heal</em> spell is at least 5th level, this damage increases to 2d6, or 3d6 if the spell is at least 8th level.</p>\n<p>@Compendium[pf2e.feat-effects.Effect: Radiant Infusion]{Effect: Radiant Infusion}</p>"
        },
        "featType": {
            "value": "class"
        },
        "level": {
            "value": 4
        },
        "location": "",
        "prerequisites": {
            "value": [
                {
                    "value": "good alignment"
                },
                {
                    "value": "healing font"
                }
            ]
        },
        "rules": [],
        "source": {
            "value": "Pathfinder Advanced Player's Guide"
        },
        "traits": {
            "custom": "",
            "rarity": {
                "value": "common"
            },
            "value": [
                "cleric",
                "concentrate",
                "metamagic"
            ]
        }
    },
    "effects": [],
    "flags": {},
    "img": "systems/pf2e/icons/features/feats/feats.webp",
    "name": "Radiant Infusion",
    "type": "feat"
}
