{
    "_id": "bkZgWFSFV4cAf5Ot",
    "data": {
        "actionCategory": {
            "value": ""
        },
        "actionType": {
            "value": "passive"
        },
        "actions": {
            "value": null
        },
        "description": {
            "value": "<p>Your surgery can bring a patient back from the brink of death, but might push them over the edge. When you @Compendium[pf2e.actionspf2e.Treat Wounds]{Treat Wounds}, you can deal [[/r 1d8 #slashing]]{1d8 slashing damage} to your patient just before applying the effects of Treat Wounds.</p>\n<p>If you do, you gain a +2 circumstance bonus to your Medicine check to Treat Wounds, and if you roll a success, you get a critical success instead.</p>"
        },
        "featType": {
            "value": "skill"
        },
        "level": {
            "value": 1
        },
        "location": "",
        "prerequisites": {
            "value": [
                {
                    "value": "trained in Medicine"
                }
            ]
        },
        "rules": [
            {
                "key": "ToggleProperty",
                "label": "Use Risky Surgery to Treat Wounds?",
                "property": "flags.pf2e.rollOptions.medicine.risky-surgery"
            },
            {
                "key": "FlatModifier",
                "predicate": {
                    "all": [
                        "risky-surgery"
                    ]
                },
                "roll-options": [
                    "medicine"
                ],
                "selector": "medicine",
                "type": "circumstance",
                "value": 2
            },
            {
                "key": "Note",
                "predicate": {
                    "all": [
                        "risky-surgery"
                    ]
                },
                "selector": "medicine",
                "text": "<p><strong>{item|name}</strong> When you @Compendium[pf2e.actionspf2e.Treat Wounds]{Treat Wounds}, you can deal [[/r 1d8 #slashing]]{1d8 slashing damage} to your patient just before applying the effects of Treat Wounds. If you do, you gain a +2 circumstance bonus to your Medicine check to Treat Wounds, and if you roll a success, you get a critical success instead.</p>"
            }
        ],
        "source": {
            "value": "Pathfinder Advanced Player's Guide"
        },
        "traits": {
            "custom": "",
            "rarity": {
                "value": "common"
            },
            "value": [
                "general",
                "skill"
            ]
        }
    },
    "effects": [],
    "flags": {},
    "img": "systems/pf2e/icons/features/feats/feats.webp",
    "name": "Risky Surgery",
    "type": "feat"
}
