{
    "_id": "RLWbx2itF1jmW0OL",
    "data": {
        "actionCategory": {
            "value": ""
        },
        "actionType": {
            "value": "passive"
        },
        "actions": {
            "value": null
        },
        "description": {
            "value": "<p>Your own shadow speaks to you, providing knowledge of spells and a reservoir of magical power. Your shadow reservoir contains a single spell of each spell level at least 2 levels lower than the highest-level spell you can cast from your spell slots. This spell must come from your spell list, you must have access to it, and it must require a spell attack roll or a saving throw. These spells don't need to be prepared and aren't in your repertoire.</p>\n<p>Regardless of the way in which you cast spells, you can spontaneously cast a spell from your shadow reservoir by using one of your spell slots of the same level. If you're a prepared spellcaster, you lose the spell you prepared in that slot.</p>\n<p>Spells cast from your shadow reservoir gain the shadow trait, and affected creatures might be able to disbelieve them. If the spell requires an attack roll, use the higher of the target's AC or their Will DC. If the spell requires a saving throw, the target uses their Will saving throw or the spell's normal saving throw, whichever is higher. Each time a creature fails its saving throw against a spell cast from your reservoir, you gain a small tattoo inked on your flesh out of pure shadowstuff.</p>\n<p>If you have more than one source of spells you can cast with spell slots, such as if you're a spellcaster with a multiclass archetype, choose one source of spells for your shadow reservoir.</p>"
        },
        "featType": {
            "value": "archetype"
        },
        "level": {
            "value": 10
        },
        "location": "",
        "prerequisites": {
            "value": [
                {
                    "value": "ability to cast spells from spell slots"
                },
                {
                    "value": "Shadowcaster Dedication"
                }
            ]
        },
        "rules": [],
        "source": {
            "value": ""
        },
        "traits": {
            "custom": "",
            "rarity": {
                "value": "common"
            },
            "value": [
                "archetype"
            ]
        }
    },
    "effects": [],
    "flags": {},
    "img": "systems/pf2e/icons/default-icons/feat.svg",
    "name": "Shadow Reservoir",
    "type": "feat"
}
