{
    "_id": "zAJY8rLvZjzOK0Mt",
    "data": {
        "actionCategory": {
            "value": ""
        },
        "actionType": {
            "value": "passive"
        },
        "actions": {
            "value": null
        },
        "description": {
            "value": "<p>During daily preparations, you can indulge in your associated sin. When you do, you gain one additional spell slot of any spell level up to two levels below the highest-level wizard spell you can cast. You can prepare only a spell of your specialized school in this slot. As with any other act, indulging in your sin might change your alignment if your behavior harms someone else.</p>"
        },
        "featType": {
            "value": "archetype"
        },
        "level": {
            "value": 8
        },
        "location": "",
        "prerequisites": {
            "value": [
                {
                    "value": "Runelord Dedication"
                }
            ]
        },
        "rules": [],
        "source": {
            "value": ""
        },
        "traits": {
            "custom": "",
            "rarity": {
                "value": "common"
            },
            "value": [
                "archetype"
            ]
        }
    },
    "effects": [],
    "flags": {},
    "img": "systems/pf2e/icons/default-icons/feat.svg",
    "name": "Sin Reservoir",
    "type": "feat"
}
