{
    "_id": "mRHkGMLecd5aaj2R",
    "data": {
        "actionCategory": {
            "value": ""
        },
        "actionType": {
            "value": "passive"
        },
        "actions": {
            "value": null
        },
        "description": {
            "value": "<p>You're well-versed in weapons that allow you to bring bounties in alive. You are trained with the following weapons: @Compendium[pf2e.equipment-srd.Bola]{Bola}, @Compendium[pf2e.equipment-srd.Sap]{Sap}, and @Compendium[pf2e.equipment-srd.Whip]{Whip}. You gain access to bolas. Whenever you gain a class feature that grants you expert or greater proficiency in a given weapon or weapons, you also gain that proficiency in the weapons listed.</p>\n<p>In addition, you take no penalty when making a nonlethal attack with a weapon without the nonlethal trait.</p>"
        },
        "featType": {
            "value": "archetype"
        },
        "level": {
            "value": 4
        },
        "prerequisites": {
            "value": []
        },
        "rules": [],
        "source": {
            "value": "Pathfinder Advanced Player's Guide"
        },
        "traits": {
            "custom": "",
            "rarity": {
                "value": "common"
            },
            "value": [
                "archetype"
            ]
        }
    },
    "effects": [],
    "flags": {},
    "img": "systems/pf2e/icons/features/feats/feats.webp",
    "name": "Tools Of The Trade",
    "type": "feat"
}
