{
    "_id": "n5p8QfZdptRZp0ii",
    "data": {
        "actionCategory": {
            "value": ""
        },
        "actionType": {
            "value": "passive"
        },
        "actions": {
            "value": null
        },
        "description": {
            "value": "<p><strong>Moderate Curse:</strong> Abadar curses all your enterprises, leading to financial disaster as all your ventures always seem to fail. The result of your check to @Compendium[pf2e.actionspf2e.Earn Income]{Earn Income} is always one degree of success worse than the one you rolled.</p>"
        },
        "featType": {
            "value": "curse"
        },
        "level": {
            "value": 0
        },
        "prerequisites": {
            "value": []
        },
        "rules": [],
        "source": {
            "value": ""
        },
        "traits": {
            "custom": "",
            "rarity": {
                "value": "common"
            },
            "selected": {
                "custom": "Single Use"
            },
            "value": []
        }
    },
    "effects": [],
    "flags": {},
    "img": "systems/pf2e/icons/deity/Abadar.webp",
    "name": "Abadar - Moderate Curse",
    "type": "feat"
}
