{
    "_id": "8GUkKvCeI0xljCOk",
    "data": {
        "description": {
            "value": "<p>Granted by @Compendium[pf2e.spells-srd.Stormwind Flight]{Stormwind Flight}.</p>\n<p>You gain a fly Speed equal to your Speed.</p>"
        },
        "duration": {
            "expiry": "turn-start",
            "sustained": false,
            "unit": "minutes",
            "value": 1
        },
        "level": {
            "value": 4
        },
        "rules": [
            {
                "key": "BaseSpeed",
                "selector": "fly",
                "value": "@attributes.speed.value"
            }
        ],
        "source": {
            "value": ""
        },
        "start": {
            "initiative": null,
            "value": 0
        },
        "target": null,
        "tokenIcon": {
            "show": true
        },
        "traits": {
            "custom": "",
            "rarity": {
                "value": "common"
            },
            "value": []
        }
    },
    "effects": [],
    "flags": {},
    "img": "systems/pf2e/icons/spells/stormwind-flight.webp",
    "name": "Spell Effect: Stormwind Flight",
    "type": "effect"
}
