{
    "_id": "Chol7ExtoN2T36mP",
    "data": {
        "description": {
            "value": "<p>Granted by succeeding on @Compendium[pf2e.spells-srd.Inspire Heroics]{Inspire Heroics} to enhance @Compendium[pf2e.spells-srd.Inspire Defense]{Inspire Defense}.</p>\n<p>You inspire your allies to protect themselves more effectively. You and all allies in the area gain a +2 status bonus to AC and saving throws, as well as resistance equal to half the spell's level to physical damage.</p>\n<p><em>Note: resistance is not automatically added.</em></p>"
        },
        "duration": {
            "expiry": "turn-start",
            "sustained": false,
            "unit": "rounds",
            "value": 1
        },
        "level": {
            "value": 1
        },
        "rules": [
            {
                "key": "FlatModifier",
                "label": "Inspire Defense",
                "selector": "ac",
                "type": "status",
                "value": 2
            },
            {
                "key": "FlatModifier",
                "label": "Inspire Defense",
                "selector": "saving-throw",
                "type": "status",
                "value": 2
            }
        ],
        "source": {
            "value": ""
        },
        "start": {
            "initiative": null,
            "value": 0
        },
        "target": null,
        "tokenIcon": {
            "show": true
        },
        "traits": {
            "custom": "",
            "rarity": {
                "value": "common"
            },
            "value": []
        }
    },
    "effects": [],
    "flags": {},
    "img": "systems/pf2e/icons/spells/inspire-heroics.webp",
    "name": "Spell Effect: Inspire Heroics (Defense, +2)",
    "type": "effect"
}
