{
    "_id": "beReeFroAx24hj83",
    "data": {
        "description": {
            "value": "<p>Granted by @Compendium[pf2e.spells-srd.Inspire Courage]{Inspire Courage}</p>\n<p>You are inspired by words or tunes of encouragement. You gain a +1 status bonus to attack rolls, damage rolls, and saves against fear effects.</p>"
        },
        "duration": {
            "expiry": "turn-start",
            "sustained": false,
            "unit": "rounds",
            "value": 1
        },
        "level": {
            "value": 1
        },
        "rules": [
            {
                "key": "FlatModifier",
                "label": "Inspire Courage",
                "selector": "attack",
                "type": "status",
                "value": 1
            },
            {
                "key": "FlatModifier",
                "label": "Inspire Courage",
                "selector": "damage",
                "type": "status",
                "value": 1
            },
            {
                "key": "FlatModifier",
                "label": "Inspire Courage (vs fear)",
                "predicate": {
                    "all": [
                        "fear"
                    ]
                },
                "selector": "saving-throw",
                "type": "status",
                "value": 1
            }
        ],
        "source": {
            "value": ""
        },
        "start": {
            "value": 0
        },
        "target": null,
        "tokenIcon": {
            "show": true
        },
        "traits": {
            "custom": "",
            "rarity": {
                "value": "common"
            },
            "value": []
        }
    },
    "effects": [],
    "flags": {},
    "img": "systems/pf2e/icons/spells/inspire-courage.webp",
    "name": "Spell Effect: Inspire Courage",
    "type": "effect"
}
