{
    "_id": "gFVazlIgCZivKzKF",
    "data": {
        "attributes": {
            "ac": {
                "value": 42
            },
            "hardness": 5,
            "hasHealth": true,
            "hp": {
                "details": "",
                "max": 80,
                "temp": 0,
                "value": 80
            },
            "stealth": {
                "details": "",
                "value": 32
            }
        },
        "creatureType": "",
        "customModifiers": {},
        "details": {
            "description": "<p>Six giant tentacles reach up from the ink lake, grabbing any foes in reach and dragging them underwater.</p>",
            "disable": "<p><span data-pf2-check=\"athletics\" data-pf2-label=\"Disable Athletics DC\" data-pf2-dc=\"48\" data-pf2-show-dc=\"gm\">Athletics</span> (legendary) or <span data-pf2-check=\"athletics\" data-pf2-label=\"Disable Acrobatics DC\" data-pf2-dc=\"45\" data-pf2-show-dc=\"gm\">Acrobatics</span> (master) to tie one tentacle into a knot, rendering it useless, or <em>@Compendium[pf2e.spells-srd.Dispel Magic]{Dispel Magic}</em> (8th level; counteract DC 44) to counteract one tentacle.</p>\n<p>The death of the Daemonic Rumormonger permanently dispels all the inky tendrils.</p>",
            "isComplex": true,
            "level": {
                "value": 20
            },
            "reset": "",
            "routine": "<p>(6 actions) The hazard loses 1 action for every tentacle that is disabled or destroyed. The tentacles can combine their actions to use the hazard's Inky Imitator ability. A broken tentacle can still Strike, but it can't Grab. This hazard takes no multiple attack penalty.</p>"
        },
        "saves": {
            "fortitude": {
                "saveDetail": "",
                "value": 36
            },
            "reflex": {
                "saveDetail": "",
                "value": 39
            },
            "will": {
                "saveDetail": "",
                "value": 0
            }
        },
        "source": {
            "value": "Pathfinder #162: Ruins of the Radiant Siege"
        },
        "statusEffects": [],
        "traits": {
            "ci": [],
            "di": {
                "custom": "",
                "selected": {},
                "value": [
                    "poison"
                ]
            },
            "dr": [],
            "dv": [],
            "rarity": {
                "value": "common"
            },
            "size": {
                "value": "med"
            },
            "traits": {
                "custom": "",
                "value": [
                    "environmental",
                    "magical"
                ]
            }
        }
    },
    "effects": [],
    "flags": {},
    "img": "systems/pf2e/icons/default-icons/hazard.svg",
    "items": [
        {
            "_id": "cNLxEiiU06b04C55",
            "data": {
                "attack": {
                    "value": ""
                },
                "attackEffects": {
                    "custom": "",
                    "value": [
                        "grab"
                    ]
                },
                "bonus": {
                    "value": 37
                },
                "damageRolls": {
                    "h1j9nj1o1y5ht58x6r4n": {
                        "damage": "4d8+15",
                        "damageType": "bludgeoning"
                    }
                },
                "description": {
                    "value": ""
                },
                "rules": [],
                "slug": null,
                "source": {
                    "value": ""
                },
                "traits": {
                    "custom": "",
                    "rarity": {
                        "value": "common"
                    },
                    "value": [
                        "reach-15"
                    ]
                },
                "weaponType": {
                    "value": "melee"
                }
            },
            "effects": [],
            "flags": {},
            "img": "systems/pf2e/icons/default-icons/melee.svg",
            "name": "Tentacle",
            "sort": 100000,
            "type": "melee"
        },
        {
            "_id": "4nJSWcGlNE3k6uH0",
            "data": {
                "actionCategory": {
                    "value": ""
                },
                "actionType": {
                    "value": "passive"
                },
                "actions": {
                    "value": null
                },
                "description": {
                    "value": "<p><strong>Saving Throw</strong> <span data-pf2-check=\"fortitude\" data-pf2-traits=\"poison\" data-pf2-label=\"Black Ink Delirium DC\" data-pf2-dc=\"38\" data-pf2-show-dc=\"gm\">Fortitude</span>;</p>\n<div data-visibility=\"gm\">\n<p><strong>Maximum Duration</strong> 4 rounds;</p>\n<p><strong>Stage 1</strong> [[/r 3d6 #poison]]{3d6 poison damage} and @Compendium[pf2e.conditionitems.Clumsy]{Clumsy 2} (1 round);</p>\n<p><strong>Stage 2</strong> [[/r 6d6 #poison]]{6d6 poison damage} and @Compendium[pf2e.conditionitems.Confused]{Confused} (1 round)</p>\n</div>"
                },
                "requirements": {
                    "value": ""
                },
                "rules": [],
                "slug": null,
                "source": {
                    "value": ""
                },
                "traits": {
                    "custom": "",
                    "rarity": {
                        "value": "common"
                    },
                    "value": [
                        "poison"
                    ]
                },
                "trigger": {
                    "value": ""
                },
                "weapon": {
                    "value": ""
                }
            },
            "effects": [],
            "flags": {},
            "img": "systems/pf2e/icons/actions/Passive.webp",
            "name": "Black Ink Delirium",
            "sort": 300000,
            "type": "action"
        },
        {
            "_id": "Dz4rpuIMNqJy4V90",
            "data": {
                "actionCategory": {
                    "value": "offensive"
                },
                "actionType": {
                    "value": "action"
                },
                "actions": {
                    "value": 2
                },
                "description": {
                    "value": "<p>The inky tendrils cast a 10th-level <em>@Compendium[pf2e.spells-srd.Duplicate Foe]{Duplicate Foe}</em> spell (<span data-pf2-check=\"fortitude\" data-pf2-traits=\"conjuration,arcane\" data-pf2-label=\"Duplicate Foe DC\" data-pf2-dc=\"40\" data-pf2-show-dc=\"gm\">Fortitude</span>) on the target; on a failed save, a simulacrum of the target made from dripping ink and clockwork scraps emerges from any other spot (tendrils' choice) in the lake.</p>\n<p>The tendrils don't need to Sustain the Spell; the duplicate exists for 1 minute or until it is destroyed before collapsing into a puddle of ink and scrap metal.</p>"
                },
                "requirements": {
                    "value": ""
                },
                "rules": [],
                "slug": null,
                "source": {
                    "value": ""
                },
                "traits": {
                    "custom": "",
                    "rarity": {
                        "value": "common"
                    },
                    "value": [
                        "arcane",
                        "conjuration"
                    ]
                },
                "trigger": {
                    "value": ""
                },
                "weapon": {
                    "value": ""
                }
            },
            "effects": [],
            "flags": {},
            "img": "systems/pf2e/icons/actions/TwoActions.webp",
            "name": "Inky Imitator",
            "sort": 400000,
            "type": "action"
        },
        {
            "_id": "q47XrkqT8jn5rAqq",
            "data": {
                "actionCategory": {
                    "value": "offensive"
                },
                "actionType": {
                    "value": "action"
                },
                "actions": {
                    "value": 1
                },
                "description": {
                    "value": "<p><strong>Requirements</strong> The monster's last action was a success with a Strike that lists Grab in its damage entry, or it has a creature grabbed using this action.</p>\n<p><strong>Effect</strong> The monster automatically Grabs the target until the end of the monster's next turn. The creature is @Compendium[pf2e.conditionitems.Grabbed]{Grabbed} by whichever body part the monster attacked with, and that body part can't be used to Strike creatures until the grab is ended. Using Grab extends the duration of the monster's Grab until the end of its next turn for all creatures grabbed by it. A grabbed creature can use the @Compendium[pf2e.actionspf2e.Escape]{Escape} action to get out of the grab, and the Grab ends for a grabbed creatures if the monster moves away from it.</p>"
                },
                "requirements": {
                    "value": ""
                },
                "rules": [],
                "slug": "grab",
                "source": {
                    "value": ""
                },
                "traits": {
                    "custom": "",
                    "rarity": {
                        "value": "common"
                    },
                    "value": []
                },
                "trigger": {
                    "value": ""
                },
                "weapon": {
                    "value": ""
                }
            },
            "effects": [],
            "flags": {
                "core": {
                    "sourceId": "Compendium.pf2e.bestiary-ability-glossary-srd.Tkd8sH4pwFIPzqTr"
                }
            },
            "img": "systems/pf2e/icons/actions/OneAction.webp",
            "name": "Grab",
            "sort": 0,
            "type": "action"
        },
        {
            "_id": "XpTvRTQsAv9H9zpJ",
            "data": {
                "actionCategory": {
                    "value": "offensive"
                },
                "actionType": {
                    "value": "action"
                },
                "actions": {
                    "value": 1
                },
                "description": {
                    "value": "<p>2d8+10 bludgeoning plus black ink delirium, <span data-pf2-check=\"fortitude\" data-pf2-traits=\"damaging-effect\" data-pf2-label=\"Constrict DC\" data-pf2-dc=\"42\" data-pf2-show-dc=\"gm\">basic Fortitude</span></p>\n<hr />\n<p>The monster deals the listed amount of damage to any number of creatures @Compendium[pf2e.conditionitems.Grabbed]{Grabbed} or @Compendium[pf2e.conditionitems.Restrained]{Restrained} by it. Each of those creatures can attempt a basic Fortitude save with the listed DC.</p>"
                },
                "requirements": {
                    "value": ""
                },
                "rules": [],
                "slug": "constrict",
                "source": {
                    "value": ""
                },
                "traits": {
                    "custom": "",
                    "rarity": {
                        "value": "common"
                    },
                    "value": []
                },
                "trigger": {
                    "value": ""
                },
                "weapon": {
                    "value": ""
                }
            },
            "effects": [],
            "flags": {
                "core": {
                    "sourceId": "Compendium.pf2e.bestiary-ability-glossary-srd.g26YiEIfSHCpLocV"
                }
            },
            "img": "systems/pf2e/icons/actions/OneAction.webp",
            "name": "Constrict",
            "sort": 0,
            "type": "action"
        },
        {
            "_id": "b9gVzcE3UM4ixbBV",
            "data": {
                "actionCategory": {
                    "value": "interaction"
                },
                "actionType": {
                    "value": "reaction"
                },
                "actions": {
                    "value": null
                },
                "description": {
                    "value": "<p data-visibility=\"gm\"><strong>Trigger</strong> A non-daemonic creature moves within 15 feet of the shoreline;</p>\n<p><strong>Effect</strong> The hazard makes a tentacle Strike against the triggering creature and the hazard rolls initiative.</p>"
                },
                "requirements": {
                    "value": ""
                },
                "rules": [],
                "slug": null,
                "source": {
                    "value": ""
                },
                "traits": {
                    "custom": "",
                    "rarity": {
                        "value": "common"
                    },
                    "value": []
                },
                "trigger": {
                    "value": ""
                },
                "weapon": {
                    "value": ""
                }
            },
            "effects": [],
            "flags": {},
            "img": "systems/pf2e/icons/actions/Reaction.webp",
            "name": "Tendrils Come Alive",
            "sort": 0,
            "type": "action"
        }
    ],
    "name": "Inky Tendrils",
    "token": {
        "disposition": 0,
        "height": 1,
        "img": "systems/pf2e/icons/default-icons/hazard.svg",
        "name": "Inky Tendrils",
        "width": 1
    },
    "type": "hazard"
}
