{
    "_id": "kidMmEzwgoBcHdnR",
    "data": {
        "attributes": {
            "ac": {
                "value": 0
            },
            "hardness": 0,
            "hasHealth": true,
            "hp": {
                "details": "",
                "max": 10,
                "temp": 0,
                "value": 10
            },
            "stealth": {
                "details": "<p>(legendary)</p>",
                "value": 36
            }
        },
        "creatureType": "",
        "details": {
            "description": "<p>Subtle but deadly magical runes link this mural to Kharnas's master. Good- or neutral-aligned creatures who examine the mural witness the castle's drawbridge silently descend, revealing an endless darkness.</p>",
            "disable": "<p><span data-pf2-check=\"thievery\" data-pf2-label=\"Disable Thievery DC\" data-pf2-dc=\"44\" data-pf2-show-dc=\"gm\">Thievery</span> (legendary) to obscure or mar the magical runes set into the mural, or <em>@Compendium[pf2e.spells-srd.Dispel Magic]{Dispel Magic}</em> (9th level; counteract DC 42) to counteract the mural</p>",
            "isComplex": false,
            "level": {
                "value": 20
            },
            "reset": "<p>1 week</p>",
            "routine": ""
        },
        "saves": {
            "fortitude": {
                "saveDetail": "",
                "value": 0
            },
            "reflex": {
                "saveDetail": "",
                "value": 0
            },
            "will": {
                "saveDetail": "",
                "value": 0
            }
        },
        "source": {
            "value": "Pathfinder #162: Ruins of the Radiant Siege"
        },
        "statusEffects": [],
        "traits": {
            "ci": [],
            "di": {
                "custom": "",
                "selected": {},
                "value": []
            },
            "dr": [],
            "dv": [],
            "rarity": {
                "value": "common"
            },
            "size": {
                "value": "med"
            },
            "traits": {
                "custom": "",
                "value": [
                    "magical",
                    "trap"
                ]
            }
        }
    },
    "effects": [],
    "flags": {},
    "img": "systems/pf2e/icons/default-icons/hazard.svg",
    "items": [
        {
            "_id": "OMtflrg7VM1ogHqZ",
            "data": {
                "actionCategory": {
                    "value": "offensive"
                },
                "actionType": {
                    "value": "reaction"
                },
                "actions": {
                    "value": null
                },
                "description": {
                    "value": "<p data-visibility=\"gm\"><strong>Trigger</strong> A creature capable of casting divine magic examines the mural;</p>\n<p><strong>Effect</strong> The mural casts @Compendium[pf2e.spells-srd.Weird]{Weird} (<span data-pf2-check=\"will\" data-pf2-traits=\"death,emotion,fear,illusion,mental,damaging-effect\" data-pf2-label=\"Tegresin's Greeting DC\" data-pf2-dc=\"43\" data-pf2-show-dc=\"gm\">Will</span> save) on all creatures in the gallery. A snarl fills the creatures' minds.</p>"
                },
                "requirements": {
                    "value": ""
                },
                "rules": [],
                "slug": null,
                "source": {
                    "value": ""
                },
                "traits": {
                    "custom": "",
                    "rarity": {
                        "value": "common"
                    },
                    "value": []
                },
                "trigger": {
                    "value": ""
                },
                "weapon": {
                    "value": ""
                }
            },
            "effects": [],
            "flags": {},
            "img": "systems/pf2e/icons/actions/Reaction.webp",
            "name": "Tegresin's Greeting",
            "sort": 100000,
            "type": "action"
        }
    ],
    "name": "The Laughing Fiend's Greeting",
    "token": {
        "disposition": 0,
        "height": 1,
        "img": "systems/pf2e/icons/default-icons/hazard.svg",
        "name": "The Laughing Fiend's Greeting",
        "width": 1
    },
    "type": "hazard"
}
