{
    "_id": "2Kw49I6EZbKKlTtK",
    "data": {
        "abilities": {
            "cha": {
                "mod": 0
            },
            "con": {
                "mod": 4
            },
            "dex": {
                "mod": 2
            },
            "int": {
                "mod": 0
            },
            "str": {
                "mod": 5
            },
            "wis": {
                "mod": 4
            }
        },
        "attributes": {
            "ac": {
                "details": "",
                "value": 24
            },
            "allSaves": {
                "value": ""
            },
            "hp": {
                "details": "",
                "max": 105,
                "temp": 0,
                "value": 105
            },
            "initiative": {
                "ability": "perception"
            },
            "perception": {
                "value": 14
            },
            "shield": {
                "ac": 0,
                "brokenThreshold": 0,
                "hardness": 0,
                "max": 0,
                "value": 0
            },
            "speed": {
                "otherSpeeds": [
                    {
                        "type": "Ice Burrow",
                        "value": "20 feet"
                    }
                ],
                "value": "25"
            }
        },
        "details": {
            "alignment": {
                "value": "N"
            },
            "creatureType": "Elemental",
            "flavorText": "<p>Freezing and thawing in a near-constant loop, blizzardborn resemble humanoid forms composed of a mixture of partially melted snow and sleet. These elementals move with crunching strides, their bodies constantly sloshing and sloughing off shards of ice. Because of their ability to refreeze, blizzardborn can travel into warmer environments safely, though they tend to look more like slush in these areas.</p>",
            "level": {
                "value": 6
            },
            "source": {
                "value": "Pathfinder Bestiary 2"
            }
        },
        "resources": {},
        "saves": {
            "fortitude": {
                "saveDetail": "",
                "value": 16
            },
            "reflex": {
                "saveDetail": "",
                "value": 12
            },
            "will": {
                "saveDetail": "",
                "value": 14
            }
        },
        "traits": {
            "attitude": {
                "value": "hostile"
            },
            "ci": [],
            "di": {
                "custom": "",
                "value": [
                    "bleed",
                    "cold",
                    "paralyzed",
                    "poison",
                    "sleep"
                ]
            },
            "dr": [],
            "dv": [
                {
                    "label": "Fire",
                    "type": "fire",
                    "value": "5"
                }
            ],
            "languages": {
                "custom": "",
                "selected": [],
                "value": [
                    "aquan"
                ]
            },
            "rarity": {
                "value": "common"
            },
            "senses": {
                "value": "darkvision, snow vision"
            },
            "size": {
                "value": "med"
            },
            "traits": {
                "custom": "",
                "value": [
                    "cold",
                    "elemental",
                    "water"
                ]
            }
        }
    },
    "effects": [],
    "flags": {},
    "img": "systems/pf2e/icons/default-icons/npc.svg",
    "items": [
        {
            "_id": "kzI56kmfH5aQquo7",
            "data": {
                "attack": {
                    "value": ""
                },
                "attackEffects": {
                    "value": []
                },
                "bonus": {
                    "value": 17
                },
                "damageRolls": {
                    "0": {
                        "damage": "2d6+8",
                        "damageType": "slashing"
                    }
                },
                "description": {
                    "value": "<p>[[/r 1d6 #persistent cold]] @Compendium[pf2e.conditionitems.Persistent Damage]{Persistent Cold Damage}</p>"
                },
                "rules": [],
                "slug": null,
                "source": {
                    "value": ""
                },
                "traits": {
                    "custom": "",
                    "rarity": {
                        "value": "common"
                    },
                    "value": [
                        "versatile-b"
                    ]
                },
                "weaponType": {
                    "value": "melee"
                }
            },
            "effects": [],
            "flags": {},
            "img": "systems/pf2e/icons/default-icons/melee.svg",
            "name": "Ice Claw",
            "sort": 100000,
            "type": "melee"
        },
        {
            "_id": "ZDDAw2k12iKwWmyi",
            "data": {
                "actionCategory": {
                    "value": "interaction"
                },
                "actionType": {
                    "value": "passive"
                },
                "actions": {
                    "value": null
                },
                "description": {
                    "value": "<p>A monster with darkvision can see perfectly well in areas of darkness and dim light, though such vision is in black and white only. Some forms of magical darkness, such as a 4th-level @Compendium[pf2e.spells-srd.Darkness]{Darkness} spell, block normal darkvision. A monster with @Compendium[pf2e.bestiary-ability-glossary-srd.Greater Darkvision]{Greater Darkvision}, however, can see through even these forms of magical darkness.</p>"
                },
                "requirements": {
                    "value": ""
                },
                "rules": [],
                "slug": "darkvision",
                "source": {
                    "value": ""
                },
                "traits": {
                    "custom": "",
                    "rarity": {
                        "value": "common"
                    },
                    "value": []
                },
                "trigger": {
                    "value": ""
                },
                "weapon": {
                    "value": ""
                }
            },
            "effects": [],
            "flags": {
                "core": {
                    "sourceId": "Compendium.pf2e.bestiary-ability-glossary-srd.qCCLZhnp2HhP3Ex6"
                }
            },
            "img": "systems/pf2e/icons/default-icons/mystery-man.svg",
            "name": "Darkvision",
            "sort": 200000,
            "type": "action"
        },
        {
            "_id": "IWFZQHALE4qFDWJv",
            "data": {
                "actionCategory": {
                    "value": "interaction"
                },
                "actionType": {
                    "value": "passive"
                },
                "actions": {
                    "value": null
                },
                "description": {
                    "value": "<p>The blizzardborn ignores the @Compendium[pf2e.conditionitems.Concealed]{Concealed} condition from falling snow.</p>"
                },
                "requirements": {
                    "value": ""
                },
                "rules": [],
                "slug": null,
                "source": {
                    "value": ""
                },
                "traits": {
                    "custom": "",
                    "rarity": {
                        "value": "common"
                    },
                    "value": []
                },
                "trigger": {
                    "value": ""
                },
                "weapon": {
                    "value": ""
                }
            },
            "effects": [],
            "flags": {},
            "img": "systems/pf2e/icons/actions/Passive.webp",
            "name": "Snow Vision",
            "sort": 300000,
            "type": "action"
        },
        {
            "_id": "cE9GHCJxhOHcgxgi",
            "data": {
                "actionCategory": {
                    "value": "defensive"
                },
                "actionType": {
                    "value": "reaction"
                },
                "actions": {
                    "value": null
                },
                "description": {
                    "value": "<p data-visibility=\"gm\"><strong>Trigger</strong> An enemy hits the blizzardborn with an attack that deals physical damage</p>\n<p><strong>Effect</strong> A portion of the blizzardborn's body shatters into an explosion of razor sharp ice crystals and blinding snow that deals [[/r 2d6 #piercing]]{2d6 piercing damage} to opponents in a 5-foot emanation (<span data-pf2-check=\"reflex\" data-pf2-dc=\"24\" data-pf2-traits=\"damaging-effect\" data-pf2-label=\"Shattering Ice DC\" data-pf2-show-dc=\"gm\">basic Reflex</span> save). Anyone who fails is also @Compendium[pf2e.conditionitems.Blinded]{Blinded} for 1 round (or 3 rounds on a critical failure).</p>"
                },
                "requirements": {
                    "value": ""
                },
                "rules": [],
                "slug": null,
                "source": {
                    "value": ""
                },
                "traits": {
                    "custom": "",
                    "rarity": {
                        "value": "common"
                    },
                    "value": []
                },
                "trigger": {
                    "value": ""
                },
                "weapon": {
                    "value": ""
                }
            },
            "effects": [],
            "flags": {},
            "img": "systems/pf2e/icons/actions/Reaction.webp",
            "name": "Shattering Ice",
            "sort": 400000,
            "type": "action"
        },
        {
            "_id": "fUyM5YcNhV5dlwTV",
            "data": {
                "actionCategory": {
                    "value": "offensive"
                },
                "actionType": {
                    "value": "passive"
                },
                "actions": {
                    "value": null
                },
                "description": {
                    "value": "<p>The blizzardborn can @Compendium[pf2e.actionspf2e.Burrow]{Burrow} through ice or snow with a Speed of 20 feet. It moves at its full burrow Speed, leaving no tunnels or signs of its passing.</p>"
                },
                "requirements": {
                    "value": ""
                },
                "rules": [],
                "slug": null,
                "source": {
                    "value": ""
                },
                "traits": {
                    "custom": "",
                    "rarity": {
                        "value": "common"
                    },
                    "value": []
                },
                "trigger": {
                    "value": ""
                },
                "weapon": {
                    "value": ""
                }
            },
            "effects": [],
            "flags": {},
            "img": "systems/pf2e/icons/actions/Passive.webp",
            "name": "Ice Burrow",
            "sort": 500000,
            "type": "action"
        },
        {
            "_id": "E9snH5VnmPmNoASc",
            "data": {
                "description": {
                    "value": ""
                },
                "item": {
                    "value": 0
                },
                "mod": {
                    "value": 15
                },
                "proficient": {
                    "value": 0
                },
                "rules": [],
                "slug": null,
                "source": {
                    "value": ""
                },
                "traits": {
                    "custom": "",
                    "rarity": {
                        "value": "common"
                    },
                    "value": []
                }
            },
            "effects": [],
            "flags": {},
            "img": "systems/pf2e/icons/default-icons/lore.svg",
            "name": "Athletics",
            "sort": 600000,
            "type": "lore"
        },
        {
            "_id": "zsRr07XFkA5e8PQ3",
            "data": {
                "description": {
                    "value": ""
                },
                "item": {
                    "value": 0
                },
                "mod": {
                    "value": 14
                },
                "proficient": {
                    "value": 0
                },
                "rules": [
                    {
                        "key": "FlatModifier",
                        "label": "In Ice or Snow",
                        "predicate": {
                            "any": [
                                "terrain:icy",
                                "terrain:snow"
                            ]
                        },
                        "selector": "stealth",
                        "value": 2
                    }
                ],
                "slug": null,
                "source": {
                    "value": ""
                },
                "traits": {
                    "custom": "",
                    "rarity": {
                        "value": "common"
                    },
                    "value": []
                },
                "variants": {
                    "0": {
                        "label": "+16 in ice or snow",
                        "options": "terrain:icy,terrain:snow"
                    }
                }
            },
            "effects": [],
            "flags": {},
            "img": "systems/pf2e/icons/default-icons/lore.svg",
            "name": "Stealth",
            "sort": 700000,
            "type": "lore"
        }
    ],
    "name": "Blizzardborn",
    "token": {
        "disposition": -1,
        "height": 1,
        "img": "systems/pf2e/icons/default-icons/npc.svg",
        "name": "Blizzardborn",
        "width": 1
    },
    "type": "npc"
}
