{
    "_id": "ZL8NTvB22NeEWhVG",
    "data": {
        "ability": {
            "value": ""
        },
        "area": {
            "areaType": "",
            "value": null
        },
        "areasize": {
            "value": ""
        },
        "category": {
            "value": "focus"
        },
        "components": {
            "material": false,
            "somatic": false,
            "verbal": true
        },
        "cost": {
            "value": ""
        },
        "damage": {
            "value": {
                "0": {
                    "type": {
                        "categories": [],
                        "value": "untyped"
                    },
                    "value": "1d6"
                }
            }
        },
        "description": {
            "value": "<p>You focus your ki into magical attacks. Make an unarmed Strike or Flurry of Blows (this doesn't change the limit on using only one flourish per turn).</p>\n<p>You gain a +1 status bonus to your attack rolls with the Strikes, and the Strikes deal 1d6 extra damage. This damage can be any of the following types of your choice, chosen each time you Strike: force, lawful (only if you're lawful), negative, or positive.</p>\n<hr />\n<p><strong>Heightened (+4)</strong> The extra damage increases by 1d6.</p>\n<p>@Compendium[pf2e.spell-effects.Spell Effect: Ki Strike (Force)]{Spell Effect: Ki Strike (Force)}</p>\n<p>@Compendium[pf2e.spell-effects.Spell Effect: Ki Strike (Lawful)]{Spell Effect: Ki Strike (Lawful)}</p>\n<p>@Compendium[pf2e.spell-effects.Spell Effect: Ki Strike (Negative)]{Spell Effect: Ki Strike (Negative)}</p>\n<p>@Compendium[pf2e.spell-effects.Spell Effect: Ki Strike (Positive)]{Spell Effect: Ki Strike (Positive)}</p>"
        },
        "duration": {
            "value": ""
        },
        "hasCounteractCheck": {
            "value": false
        },
        "level": {
            "value": 1
        },
        "location": {
            "value": ""
        },
        "materials": {
            "value": ""
        },
        "prepared": {
            "value": ""
        },
        "primarycheck": {
            "value": ""
        },
        "range": {
            "value": ""
        },
        "rules": [],
        "save": {
            "basic": "",
            "value": ""
        },
        "scaling": {
            "damage": {
                "0": "1d6"
            },
            "interval": 4
        },
        "school": {
            "value": "transmutation"
        },
        "secondarycasters": {
            "value": ""
        },
        "secondarycheck": {
            "value": ""
        },
        "source": {
            "value": "Pathfinder Core Rulebook"
        },
        "spellType": {
            "value": "utility"
        },
        "sustained": {
            "value": false
        },
        "target": {
            "value": ""
        },
        "time": {
            "value": "1"
        },
        "traditions": {
            "value": []
        },
        "traits": {
            "custom": "",
            "rarity": {
                "value": "uncommon"
            },
            "value": [
                "monk"
            ]
        }
    },
    "effects": [],
    "flags": {},
    "img": "systems/pf2e/icons/spells/ki-strike.webp",
    "name": "Ki Strike",
    "type": "spell"
}
