{
    "_id": "ayRXv0wQH00TTNZe",
    "data": {
        "ability": {
            "value": ""
        },
        "area": {
            "areaType": "",
            "value": ""
        },
        "areasize": {
            "value": ""
        },
        "category": {
            "value": "spell"
        },
        "components": {
            "material": false,
            "somatic": true,
            "verbal": true
        },
        "cost": {
            "value": ""
        },
        "damage": {
            "value": {
                "0": {
                    "type": {
                        "categories": [],
                        "value": "piercing"
                    },
                    "value": "6d6"
                }
            }
        },
        "description": {
            "value": "<p>You replicate the attack of a deadly purple worm. You deal 3d6 piercing damage to the touched creature and afflict it with purple worm venom. The target must attempt a Fortitude save.</p>\n<hr />\n<p><strong>Critical Success</strong> The target is unaffected.</p>\n<p><strong>Success</strong> The target takes 3d6 poison damage.</p>\n<p><strong>Failure</strong> The target is afflicted with purple worm venom at stage 1.</p>\n<p><strong>Critical Failure</strong> The target is afflicted with purple worm venom at stage 2.</p>\n<hr />\n<p><strong>Purple Worm Venom</strong> (poison)</p>\n<p><strong>Level</strong> 11</p>\n<p><strong>Maximum Duration</strong> 6 rounds.</p>\n<p><strong>Stage 1</strong> [[/r 3d6 #poison]]{3d6 poison damage} and @Compendium[pf2e.conditionitems.Enfeebled]{Enfeebled 2} (1 round)</p>\n<p><strong>Stage 2</strong> [[/r 4d6 #poison]]{4d6 poison damage} and @Compendium[pf2e.conditionitems.Enfeebled]{Enfeebled 2} (1 round)</p>\n<p><strong>Stage 3</strong> [[/r 6d6 #poison]]{6d6 poison damage} and @Compendium[pf2e.conditionitems.Enfeebled]{Enfeebled 2} (1 round).</p>"
        },
        "duration": {
            "value": ""
        },
        "hasCounteractCheck": {
            "value": false
        },
        "level": {
            "value": 6
        },
        "location": {
            "value": ""
        },
        "materials": {
            "value": ""
        },
        "prepared": {
            "value": ""
        },
        "primarycheck": {
            "value": ""
        },
        "range": {
            "value": "touch"
        },
        "rules": [],
        "save": {
            "basic": "",
            "value": "fortitude"
        },
        "school": {
            "value": "necromancy"
        },
        "secondarycasters": {
            "value": ""
        },
        "secondarycheck": {
            "value": ""
        },
        "source": {
            "value": "Pathfinder Core Rulebook"
        },
        "spellType": {
            "value": "save"
        },
        "sustained": {
            "value": false
        },
        "target": {
            "value": "1 creature"
        },
        "time": {
            "value": "2"
        },
        "traditions": {
            "value": [
                "arcane",
                "primal"
            ]
        },
        "traits": {
            "custom": "",
            "rarity": {
                "value": "common"
            },
            "value": [
                "poison"
            ]
        }
    },
    "effects": [],
    "flags": {},
    "img": "systems/pf2e/icons/spells/purple-worm-sting.webp",
    "name": "Purple Worm Sting",
    "type": "spell"
}
