{
    "_id": "8E97SA9KAWCNdXfO",
    "data": {
        "ability": {
            "value": ""
        },
        "area": {
            "areaType": "",
            "value": ""
        },
        "autoHeightenLevel": {
            "value": null
        },
        "category": {
            "value": "spell"
        },
        "components": {
            "focus": false,
            "material": false,
            "somatic": false,
            "verbal": true
        },
        "cost": {
            "value": ""
        },
        "damage": {
            "value": {}
        },
        "description": {
            "value": "<p><strong>Trigger</strong> You critically fail a saving throw against a foe's effect.</p>\n<p>You distract your enemy with their feeling of smug pleasure when you fail catastrophically. They must attempt a Will save.</p>\n<hr />\n<p><strong>Critical Success</strong> The creature is unaffected.</p>\n<p><strong>Success</strong> The creature is distracted by its amusement and takes a -1 status penalty on Perception checks and Will saves for 1 round. @Compendium[pf2e.spell-effects.Spell Effect: Schadenfreude (Success)]{Spell Effect: Schadenfreude (Success)}</p>\n<p><strong>Failure</strong> The creature is overcome by its amusement and is @Compendium[pf2e.conditionitems.Stupefied]{Stupefied 1} for 1 round.</p>\n<p><strong>Critical Failure</strong> The creature is lost in its amusement and is @Compendium[pf2e.conditionitems.Stupefied]{Stupefied 2} for 1 round and @Compendium[pf2e.conditionitems.Stunned]{Stunned 1}.</p>"
        },
        "duration": {
            "value": ""
        },
        "hasCounteractCheck": {
            "value": false
        },
        "level": {
            "value": 1
        },
        "location": {
            "value": ""
        },
        "materials": {
            "value": ""
        },
        "range": {
            "value": "30 feet"
        },
        "rules": [],
        "save": {
            "basic": "",
            "value": "will"
        },
        "school": {
            "value": "enchantment"
        },
        "source": {
            "value": "Pathfinder Secrets of Magic"
        },
        "spellType": {
            "value": "save"
        },
        "sustained": {
            "value": false
        },
        "target": {
            "value": "the triggering foe"
        },
        "time": {
            "value": "reaction"
        },
        "traditions": {
            "custom": "",
            "value": [
                "arcane",
                "divine",
                "occult"
            ]
        },
        "traits": {
            "custom": "",
            "rarity": {
                "value": "common"
            },
            "value": [
                "emotion",
                "mental"
            ]
        }
    },
    "effects": [],
    "flags": {},
    "img": "systems/pf2e/icons/spells/schadenfreude.webp",
    "name": "Schadenfreude",
    "type": "spell"
}
