{
    "_id": "jks2h5pMsm8pCi8e",
    "data": {
        "ability": {
            "value": ""
        },
        "area": {
            "areaType": "burst",
            "value": "10"
        },
        "autoHeightenLevel": {
            "value": null
        },
        "category": {
            "value": "focus"
        },
        "components": {
            "focus": false,
            "material": false,
            "somatic": true,
            "verbal": true
        },
        "cost": {
            "value": ""
        },
        "damage": {
            "value": {
                "0": {
                    "applyMod": false,
                    "type": {
                        "categories": [],
                        "subtype": "",
                        "value": "fire"
                    },
                    "value": "1"
                }
            }
        },
        "description": {
            "value": "<p>A thin layer of ash and flame covers the ground in the area. The area becomes hazardous terrain. A creature that moves on the ground through the area takes 1 fire damage for every square of that area it moves into. A creature that ends its turn in the area must succeed at a Reflex save or take [[/r 1 #persistent fire]] @Compendium[pf2e.conditionitems.Persistent Damage]{Persistent Fire Damage}.</p>\n<p>Each time you sustain this spell, the radius of the burst increases by 5 feet.</p>\n<hr />\n<p><strong>Heightened (+2)</strong> Increase the damage and persistent damage by 1.</p>"
        },
        "duration": {
            "value": "sustained up to 1 minute"
        },
        "hasCounteractCheck": {
            "value": false
        },
        "level": {
            "value": 1
        },
        "location": {
            "value": ""
        },
        "materials": {
            "value": ""
        },
        "prepared": {
            "value": ""
        },
        "range": {
            "value": "30 feet"
        },
        "rules": [],
        "save": {
            "basic": "",
            "value": "reflex"
        },
        "scaling": {
            "damage": {
                "0": "1"
            },
            "interval": 2
        },
        "school": {
            "value": "conjuration"
        },
        "source": {
            "value": "Pathfinder Secrets of Magic"
        },
        "spellType": {
            "value": "save"
        },
        "sustained": {
            "value": false
        },
        "target": {
            "value": ""
        },
        "time": {
            "value": "2"
        },
        "traditions": {
            "value": []
        },
        "traits": {
            "custom": "",
            "rarity": {
                "value": "uncommon"
            },
            "value": [
                "fire"
            ]
        }
    },
    "effects": [],
    "flags": {},
    "img": "systems/pf2e/icons/default-icons/spell.svg",
    "name": "Wildfire",
    "type": "spell"
}
