{
    "_id": "XkNW2dq5hwWOViYg",
    "data": {
        "actionCategory": {
            "value": ""
        },
        "actionType": {
            "value": "passive"
        },
        "actions": {
            "value": null
        },
        "description": {
            "value": "<p><strong>[Downtime]</strong></p>\n<p><strong>Prerequisites:</strong> Tier 1 with the Grand Archive</p>\n<p><strong>Cost</strong>: 2 Fame</p>\n<p><strong>Effect</strong>: You spend your free time studying learning new trivia or practicing unfamiliar languages. When you acquire this boon, choose a common language you don't know or a Lore skill in which you are untrained. While you have this boon slotted, you can spend Downtime practicing the selected language or skill. Once you have expended 50 days of Downtime in this way, you learn the chosen language or become trained in the chosen Lore skill. This boon is then expended and grants no further benefit.</p>\n<p><strong>Special</strong> You can purchase this boon multiple times. Each time you do so, you select a different language or Lore skill.</p>"
        },
        "featType": {
            "value": "pfsboon"
        },
        "level": {
            "value": 0
        },
        "prerequisites": {
            "value": []
        },
        "rules": [],
        "source": {
            "value": ""
        },
        "traits": {
            "custom": "",
            "rarity": {
                "value": "common"
            },
            "selected": {},
            "value": []
        }
    },
    "effects": [],
    "flags": {},
    "img": "systems/pf2e/icons/default-icons/mystery-man.webp",
    "name": "Off-Hours Study",
    "type": "feat"
}
