{
    "_id": "n1Mv0Q1MirfjBmfI",
    "data": {
        "abilities": {
            "cha": {
                "mod": 3
            },
            "con": {
                "mod": 4
            },
            "dex": {
                "mod": 7
            },
            "int": {
                "mod": -1
            },
            "str": {
                "mod": 7
            },
            "wis": {
                "mod": -2
            }
        },
        "attributes": {
            "ac": {
                "details": "",
                "value": 36
            },
            "allSaves": {
                "value": ""
            },
            "hp": {
                "details": "",
                "max": 250,
                "temp": 0,
                "value": 250
            },
            "initiative": {
                "ability": "perception"
            },
            "perception": {
                "value": 20
            },
            "shield": {
                "ac": 0,
                "brokenThreshold": 0,
                "hardness": 0,
                "max": 0,
                "value": 0
            },
            "speed": {
                "otherSpeeds": [],
                "value": "fly 100 feet"
            }
        },
        "details": {
            "alignment": {
                "value": "CE"
            },
            "creatureType": "Elemental",
            "flavorText": "<p>An uthul most often appears to be a dark, swirling cloud filled with flying debris and streaked with sudden flashes of lightning. Although they are clearly elemental in nature, uthuls are nearly always found on the Material Plane, where they hide among natural cloud formations, especially thunderstorms.</p>",
            "level": {
                "value": 14
            },
            "source": {
                "value": "Pathfinder Bestiary"
            }
        },
        "resources": {},
        "saves": {
            "fortitude": {
                "saveDetail": "",
                "value": 28
            },
            "reflex": {
                "saveDetail": "",
                "value": 29
            },
            "will": {
                "saveDetail": "",
                "value": 22
            }
        },
        "traits": {
            "ci": [],
            "di": {
                "custom": "",
                "value": [
                    "electricity",
                    "paralyzed",
                    "poison",
                    "sleep"
                ]
            },
            "dr": [],
            "dv": [],
            "languages": {
                "custom": "",
                "selected": [],
                "value": [
                    "aquan"
                ]
            },
            "rarity": {
                "value": "common"
            },
            "senses": {
                "value": "darkvision"
            },
            "size": {
                "value": "huge"
            },
            "traits": {
                "custom": "",
                "value": [
                    "air",
                    "elemental"
                ]
            }
        }
    },
    "effects": [],
    "flags": {},
    "img": "systems/pf2e/icons/default-icons/npc.svg",
    "items": [
        {
            "_id": "hWaYvdDBpwGUYAcD",
            "data": {
                "attack": {
                    "value": ""
                },
                "attackEffects": {
                    "value": []
                },
                "bonus": {
                    "value": 29
                },
                "damageRolls": {
                    "54d51qn82e73e1p66nz8": {
                        "damage": "3d12+11",
                        "damageType": "slashing"
                    }
                },
                "description": {
                    "value": ""
                },
                "rules": [],
                "slug": null,
                "source": {
                    "value": ""
                },
                "traits": {
                    "custom": "",
                    "rarity": {
                        "value": "common"
                    },
                    "value": [
                        "agile"
                    ]
                },
                "weaponType": {
                    "value": "melee"
                }
            },
            "effects": [],
            "flags": {},
            "img": "systems/pf2e/icons/default-icons/melee.svg",
            "name": "Claw",
            "sort": 100000,
            "type": "melee"
        },
        {
            "_id": "TVLAYoQrAgNovOAr",
            "data": {
                "attack": {
                    "value": ""
                },
                "attackEffects": {
                    "value": []
                },
                "bonus": {
                    "value": 29
                },
                "damageRolls": {
                    "s4zyiq3lsm8vk2za5ucz": {
                        "damage": "5d8+15",
                        "damageType": "bludgeoning"
                    }
                },
                "description": {
                    "value": ""
                },
                "rules": [],
                "slug": null,
                "source": {
                    "value": ""
                },
                "traits": {
                    "custom": "",
                    "rarity": {
                        "value": "common"
                    },
                    "value": [
                        "range-increment-60"
                    ]
                },
                "weaponType": {
                    "value": "ranged"
                }
            },
            "effects": [],
            "flags": {},
            "img": "systems/pf2e/icons/default-icons/melee.svg",
            "name": "Debris",
            "sort": 200000,
            "type": "melee"
        },
        {
            "_id": "f52Whk1lgUmI3JmT",
            "data": {
                "actionCategory": {
                    "value": "defensive"
                },
                "actionType": {
                    "value": "passive"
                },
                "actions": {
                    "value": null
                },
                "description": {
                    "value": "<p>40 feet. Air in the aura is difficult terrain for Flying creatures without the air trait.</p>"
                },
                "requirements": {
                    "value": ""
                },
                "rules": [],
                "slug": null,
                "source": {
                    "value": ""
                },
                "traits": {
                    "custom": "",
                    "rarity": {
                        "value": "common"
                    },
                    "value": [
                        "air",
                        "aura"
                    ]
                },
                "trigger": {
                    "value": ""
                },
                "weapon": {
                    "value": ""
                }
            },
            "effects": [],
            "flags": {},
            "img": "systems/pf2e/icons/default-icons/mystery-man.svg",
            "name": "High Winds",
            "sort": 300000,
            "type": "action"
        },
        {
            "_id": "9KbMP0mPbueRMViR",
            "data": {
                "actionCategory": {
                    "value": "offensive"
                },
                "actionType": {
                    "value": "action"
                },
                "actions": {
                    "value": 1
                },
                "description": {
                    "value": "<p>The uthul unleashes a powerful bolt of lightning and a stunning thunderclap. The bolt deals [[/r 6d12 #electricity]]{6d12 electricity damage} to all creatures in a 30-foot line, with a <span data-pf2-check=\"reflex\" data-pf2-dc=\"34\" data-pf2-traits=\"electricity,damaging-effect\" data-pf2-label=\"Lightning Crash DC\" data-pf2-show-dc=\"gm\">basic Reflex</span> save, and every creature in a 20-foot emanation must attempt a <span data-pf2-check=\"fortitude\" data-pf2-dc=\"34\" data-pf2-traits=\"incapacitation,sonic\" data-pf2-label=\"Lightning Crash DC\" data-pf2-show-dc=\"gm\">Fortitude</span> save. The uthul can't use Lightning Crash again for [[/br 1d4 #rounds]]{1d4 rounds}.</p>\n<hr />\n<p><strong>Critical Success</strong> The creature is unaffected.</p>\n<p><strong>Success</strong> The creature is stunned 1.</p>\n<p><strong>Failure</strong> The creature is stunned for 1 round.</p>\n<p><strong>Critical Failure</strong> The creature is stunned for [[/br 1d4 #rounds]]{1d4 rounds}.</p>"
                },
                "requirements": {
                    "value": ""
                },
                "rules": [],
                "slug": null,
                "source": {
                    "value": ""
                },
                "traits": {
                    "custom": "",
                    "rarity": {
                        "value": "common"
                    },
                    "value": [
                        "electricity",
                        "incapacitation",
                        "sonic"
                    ]
                },
                "trigger": {
                    "value": ""
                },
                "weapon": {
                    "value": ""
                }
            },
            "effects": [],
            "flags": {},
            "img": "systems/pf2e/icons/default-icons/mystery-man.svg",
            "name": "Lightning Crash",
            "sort": 400000,
            "type": "action"
        },
        {
            "_id": "vJoGCQ4Ay2Cdm85A",
            "data": {
                "actionCategory": {
                    "value": "offensive"
                },
                "actionType": {
                    "value": "passive"
                },
                "actions": {
                    "value": null
                },
                "description": {
                    "value": "<p>An uthul's movement doesn't trigger reactions.</p>"
                },
                "requirements": {
                    "value": ""
                },
                "rules": [],
                "slug": null,
                "source": {
                    "value": ""
                },
                "traits": {
                    "custom": "",
                    "rarity": {
                        "value": "common"
                    },
                    "value": []
                },
                "trigger": {
                    "value": ""
                },
                "weapon": {
                    "value": ""
                }
            },
            "effects": [],
            "flags": {},
            "img": "systems/pf2e/icons/actions/Passive.webp",
            "name": "Swiftness",
            "sort": 500000,
            "type": "action"
        },
        {
            "_id": "nHfBhYOOHdy8Wx7p",
            "data": {
                "actionCategory": {
                    "value": "offensive"
                },
                "actionType": {
                    "value": "action"
                },
                "actions": {
                    "value": 2
                },
                "description": {
                    "value": "<p>The uthul transforms itself into a swirling vortex of storm and fury 10 feet wide and up to 40 feet tall. It stays in this form for 3 rounds or until it Dismisses the effect. While in this form, the uthul gains resistance 10 to physical damage and can move through other creatures. Its aura remains active, but it can't make debris Strikes nor use Lightning Crash. Instead, any creature the uthul moves through takes [[/r 4d6 #bludgeoning]]{4d6 bludgeoning damage} and [[/r 2d12 #electricity]]{2d12 electricity damage}. A creature can take this damage only once per round. A Large or smaller creature must also succeed at a <span data-pf2-check=\"reflex\" data-pf2-dc=\"32\" data-pf2-label=\"Whirlwind Form DC\" data-pf2-show-dc=\"gm\">Reflex</span> save or be picked up and held suspended within the vortex. Suspended creatures move with the uthul. A creature can attempt to escape by spending an action to attempt a <span data-pf2-check=\"reflex\" data-pf2-dc=\"32\" data-pf2-label=\"Whirlwind Form DC\" data-pf2-show-dc=\"gm\">Reflex</span> save (or a <span data-pf2-action=\"maneuverInFlight\" data-pf2-dc=\"32\" data-pf2-label=\"Whirlwind Form DC\" data-pf2-glyph=\"A\" data-pf2-show-dc=\"gm\">Acrobatics</span> check to maneuver in flight if it has a fly Speed). Upon escaping, or when the uthul transforms back into its storm cloud form, a suspended creature is hurled 1d4 × 10 feet in a random direction, then falls unless it can fly or otherwise remain aloft. After returning to its normal form, the uthul must wait 1 minute before it can use Whirlwind Form again.</p>"
                },
                "requirements": {
                    "value": ""
                },
                "rules": [],
                "slug": null,
                "source": {
                    "value": ""
                },
                "traits": {
                    "custom": "",
                    "rarity": {
                        "value": "common"
                    },
                    "value": [
                        "concentrate"
                    ]
                },
                "trigger": {
                    "value": ""
                },
                "weapon": {
                    "value": ""
                }
            },
            "effects": [],
            "flags": {},
            "img": "systems/pf2e/icons/default-icons/mystery-man.svg",
            "name": "Whirlwind Form",
            "sort": 600000,
            "type": "action"
        },
        {
            "_id": "eO1QaISfs9QAC16T",
            "data": {
                "description": {
                    "value": ""
                },
                "item": {
                    "value": 0
                },
                "mod": {
                    "value": 29
                },
                "proficient": {
                    "value": 0
                },
                "rules": [],
                "slug": null,
                "source": {
                    "value": ""
                },
                "traits": {
                    "custom": "",
                    "rarity": {
                        "value": "common"
                    },
                    "value": []
                }
            },
            "effects": [],
            "flags": {},
            "img": "systems/pf2e/icons/default-icons/lore.svg",
            "name": "Acrobatics",
            "sort": 700000,
            "type": "lore"
        },
        {
            "_id": "hbFiIKyp3zzvPIeo",
            "data": {
                "description": {
                    "value": ""
                },
                "item": {
                    "value": 0
                },
                "mod": {
                    "value": 27
                },
                "proficient": {
                    "value": 0
                },
                "rules": [],
                "slug": null,
                "source": {
                    "value": ""
                },
                "traits": {
                    "custom": "",
                    "rarity": {
                        "value": "common"
                    },
                    "value": []
                }
            },
            "effects": [],
            "flags": {},
            "img": "systems/pf2e/icons/default-icons/lore.svg",
            "name": "Athletics",
            "sort": 800000,
            "type": "lore"
        },
        {
            "_id": "dRohmROwe06DMtaO",
            "data": {
                "description": {
                    "value": ""
                },
                "item": {
                    "value": 0
                },
                "mod": {
                    "value": 23
                },
                "proficient": {
                    "value": 0
                },
                "rules": [],
                "slug": null,
                "source": {
                    "value": ""
                },
                "traits": {
                    "custom": "",
                    "rarity": {
                        "value": "common"
                    },
                    "value": []
                }
            },
            "effects": [],
            "flags": {},
            "img": "systems/pf2e/icons/default-icons/lore.svg",
            "name": "Intimidation",
            "sort": 900000,
            "type": "lore"
        },
        {
            "_id": "7c0OZ3smARZeYmJy",
            "data": {
                "description": {
                    "value": ""
                },
                "item": {
                    "value": 0
                },
                "mod": {
                    "value": 25
                },
                "proficient": {
                    "value": 0
                },
                "rules": [],
                "slug": null,
                "source": {
                    "value": ""
                },
                "traits": {
                    "custom": "",
                    "rarity": {
                        "value": "common"
                    },
                    "value": []
                }
            },
            "effects": [],
            "flags": {},
            "img": "systems/pf2e/icons/default-icons/lore.svg",
            "name": "Stealth",
            "sort": 1000000,
            "type": "lore"
        }
    ],
    "name": "Uthul",
    "token": {
        "disposition": -1,
        "height": 3,
        "img": "systems/pf2e/icons/default-icons/npc.svg",
        "name": "Uthul",
        "width": 3
    },
    "type": "npc"
}
